{"response":{"status":"ok","userTier":"developer","total":2293017,"startIndex":1,"pageSize":10,"currentPage":1,"pages":229302,"orderBy":"relevance","results":[{"id":"football\/blog\/2022\/may\/17\/jake-daniels-blackpool","type":"article","sectionId":"football","sectionName":"Football","webPublicationDate":"2022-05-17T19:31:57Z","webTitle":"Jake Daniels must find a balance between being a footballer and a role model | Thomas Hitzlsperger","webUrl":"https:\/\/www.theguardian.com\/football\/blog\/2022\/may\/17\/jake-daniels-blackpool","apiUrl":"https:\/\/content.guardianapis.com\/football\/blog\/2022\/may\/17\/jake-daniels-blackpool","isHosted":false,"pillarId":"pillar\/sport","pillarName":"Sport"},{"id":"us-news\/2022\/may\/23\/urban-coyotes-us-suburbs-dallas","type":"article","sectionId":"us-news","sectionName":"US news","webPublicationDate":"2022-05-23T08:00:44Z","webTitle":"\u2018Dawn of a new creature\u2019: after a vicious attack, a city ponders living with coyotes","webUrl":"https:\/\/www.theguardian.com\/us-news\/2022\/may\/23\/urban-coyotes-us-suburbs-dallas","apiUrl":"https:\/\/content.guardianapis.com\/us-news\/2022\/may\/23\/urban-coyotes-us-suburbs-dallas","isHosted":false,"pillarId":"pillar\/news","pillarName":"News"},{"id":"us-news\/2022\/apr\/28\/forensics-bite-mark-junk-science-charles-mccrory-chris-fabricant","type":"article","sectionId":"us-news","sectionName":"US news","webPublicationDate":"2022-04-28T09:00:03Z","webTitle":"A bite mark, a forensic dentist, a murder: how junk science ruins innocent lives ","webUrl":"https:\/\/www.theguardian.com\/us-news\/2022\/apr\/28\/forensics-bite-mark-junk-science-charles-mccrory-chris-fabricant","apiUrl":"https:\/\/content.guardianapis.com\/us-news\/2022\/apr\/28\/forensics-bite-mark-junk-science-charles-mccrory-chris-fabricant","isHosted":false,"pillarId":"pillar\/news","pillarName":"News"},{"id":"politics\/2022\/may\/01\/parliament-needs-a-fresh-start-in-a-new-building","type":"article","sectionId":"politics","sectionName":"Politics","webPublicationDate":"2022-05-01T15:40:45Z","webTitle":"Parliament needs a fresh start in a new building | Brief letters","webUrl":"https:\/\/www.theguardian.com\/politics\/2022\/may\/01\/parliament-needs-a-fresh-start-in-a-new-building","apiUrl":"https:\/\/content.guardianapis.com\/politics\/2022\/may\/01\/parliament-needs-a-fresh-start-in-a-new-building","isHosted":false,"pillarId":"pillar\/news","pillarName":"News"},{"id":"travel\/2022\/may\/10\/share-a-tip-on-a-beautiful-modern-structure-in-europe-you-could-win-a-holiday-voucher","type":"article","sectionId":"travel","sectionName":"Travel","webPublicationDate":"2022-05-10T15:52:44Z","webTitle":"Share a tip on a beautiful modern structure in Europe \u2013 you could win a holiday voucher","webUrl":"https:\/\/www.theguardian.com\/travel\/2022\/may\/10\/share-a-tip-on-a-beautiful-modern-structure-in-europe-you-could-win-a-holiday-voucher","apiUrl":"https:\/\/content.guardianapis.com\/travel\/2022\/may\/10\/share-a-tip-on-a-beautiful-modern-structure-in-europe-you-could-win-a-holiday-voucher","isHosted":false,"pillarId":"pillar\/lifestyle","pillarName":"Lifestyle"},{"id":"sport\/blog\/2022\/may\/15\/andrew-symonds-was-a-born-entertainer-and-a-reluctant-celebrity","type":"article","sectionId":"sport","sectionName":"Sport","webPublicationDate":"2022-05-15T08:27:47Z","webTitle":"Andrew Symonds was a born entertainer and a reluctant celebrity | Angus Fontaine","webUrl":"https:\/\/www.theguardian.com\/sport\/blog\/2022\/may\/15\/andrew-symonds-was-a-born-entertainer-and-a-reluctant-celebrity","apiUrl":"https:\/\/content.guardianapis.com\/sport\/blog\/2022\/may\/15\/andrew-symonds-was-a-born-entertainer-and-a-reluctant-celebrity","isHosted":false,"pillarId":"pillar\/sport","pillarName":"Sport"},{"id":"film\/2022\/may\/23\/all-that-breathes-delhi-documentary-cannes-black-kites","type":"article","sectionId":"film","sectionName":"Film","webPublicationDate":"2022-05-23T09:44:28Z","webTitle":"\u2018A gaping wound\u2019: how a film about birds of prey is a warning to India\u2019s capital city","webUrl":"https:\/\/www.theguardian.com\/film\/2022\/may\/23\/all-that-breathes-delhi-documentary-cannes-black-kites","apiUrl":"https:\/\/content.guardianapis.com\/film\/2022\/may\/23\/all-that-breathes-delhi-documentary-cannes-black-kites","isHosted":false,"pillarId":"pillar\/arts","pillarName":"Arts"},{"id":"environment\/2022\/may\/14\/country-diary-a-scent-filled-walk-to-a-remote-lake","type":"article","sectionId":"environment","sectionName":"Environment","webPublicationDate":"2022-05-14T04:30:51Z","webTitle":"Country diary: a scent-filled walk to a remote lake","webUrl":"https:\/\/www.theguardian.com\/environment\/2022\/may\/14\/country-diary-a-scent-filled-walk-to-a-remote-lake","apiUrl":"https:\/\/content.guardianapis.com\/environment\/2022\/may\/14\/country-diary-a-scent-filled-walk-to-a-remote-lake","isHosted":false,"pillarId":"pillar\/news","pillarName":"News"},{"id":"environment\/2022\/may\/11\/country-diary-a-chomping-otter-transforms-into-a-beautiful-creature","type":"article","sectionId":"environment","sectionName":"Environment","webPublicationDate":"2022-05-11T04:30:24Z","webTitle":"Country diary: A chomping otter transforms into a beautiful creature ","webUrl":"https:\/\/www.theguardian.com\/environment\/2022\/may\/11\/country-diary-a-chomping-otter-transforms-into-a-beautiful-creature","apiUrl":"https:\/\/content.guardianapis.com\/environment\/2022\/may\/11\/country-diary-a-chomping-otter-transforms-into-a-beautiful-creature","isHosted":false,"pillarId":"pillar\/news","pillarName":"News"},{"id":"us-news\/2022\/apr\/10\/chris-smalls-amazon-union-staten-island","type":"article","sectionId":"us-news","sectionName":"US news","webPublicationDate":"2022-04-10T06:00:12Z","webTitle":"\u2018A marathon, not a sprint\u2019: how Chris Smalls defied Amazon to form a union","webUrl":"https:\/\/www.theguardian.com\/us-news\/2022\/apr\/10\/chris-smalls-amazon-union-staten-island","apiUrl":"https:\/\/content.guardianapis.com\/us-news\/2022\/apr\/10\/chris-smalls-amazon-union-staten-island","isHosted":false,"pillarId":"pillar\/news","pillarName":"News"}]}}