{"response":{"status":"ok","userTier":"developer","total":1208689,"startIndex":1,"pageSize":10,"currentPage":1,"pages":120869,"orderBy":"relevance","results":[{"id":"lifeandstyle\/2022\/apr\/16\/this-much-i-know-will-young-i-love-my-dog-i-love-cleaning-i-love-singing","type":"article","sectionId":"lifeandstyle","sectionName":"Life and style","webPublicationDate":"2022-04-16T13:00:00Z","webTitle":"Will Young: \u2018I love my dog. I love cleaning. I love singing\u2026\u2019","webUrl":"https:\/\/www.theguardian.com\/lifeandstyle\/2022\/apr\/16\/this-much-i-know-will-young-i-love-my-dog-i-love-cleaning-i-love-singing","apiUrl":"https:\/\/content.guardianapis.com\/lifeandstyle\/2022\/apr\/16\/this-much-i-know-will-young-i-love-my-dog-i-love-cleaning-i-love-singing","isHosted":false,"pillarId":"pillar\/lifestyle","pillarName":"Lifestyle"},{"id":"world\/2022\/may\/16\/street-harassment-women-public","type":"article","sectionId":"lifeandstyle","sectionName":"Life and style","webPublicationDate":"2022-05-16T08:00:03Z","webTitle":"What I learned about street harassment after I transitioned","webUrl":"https:\/\/www.theguardian.com\/world\/2022\/may\/16\/street-harassment-women-public","apiUrl":"https:\/\/content.guardianapis.com\/world\/2022\/may\/16\/street-harassment-women-public","isHosted":false,"pillarId":"pillar\/lifestyle","pillarName":"Lifestyle"},{"id":"lifeandstyle\/2022\/apr\/29\/experience-i-bake-recipes-i-find-on-gravestones","type":"article","sectionId":"lifeandstyle","sectionName":"Life and style","webPublicationDate":"2022-04-29T09:00:36Z","webTitle":"Experience: I bake recipes I find on gravestones ","webUrl":"https:\/\/www.theguardian.com\/lifeandstyle\/2022\/apr\/29\/experience-i-bake-recipes-i-find-on-gravestones","apiUrl":"https:\/\/content.guardianapis.com\/lifeandstyle\/2022\/apr\/29\/experience-i-bake-recipes-i-find-on-gravestones","isHosted":false,"pillarId":"pillar\/lifestyle","pillarName":"Lifestyle"},{"id":"commentisfree\/2022\/mar\/22\/i-thought-i-was-fine-parenting-through-covid-isolation-i-wasnt","type":"article","sectionId":"commentisfree","sectionName":"Opinion","webPublicationDate":"2022-03-21T16:30:29Z","webTitle":"I thought I was fine parenting through Covid isolation. I wasn\u2019t | Celina Ribeiro","webUrl":"https:\/\/www.theguardian.com\/commentisfree\/2022\/mar\/22\/i-thought-i-was-fine-parenting-through-covid-isolation-i-wasnt","apiUrl":"https:\/\/content.guardianapis.com\/commentisfree\/2022\/mar\/22\/i-thought-i-was-fine-parenting-through-covid-isolation-i-wasnt","isHosted":false,"pillarId":"pillar\/opinion","pillarName":"Opinion"},{"id":"stage\/2022\/apr\/11\/i-know-i-know-i-know-review-southwark-playhouse-london","type":"article","sectionId":"stage","sectionName":"Stage","webPublicationDate":"2022-04-11T19:00:06Z","webTitle":"I Know I Know I Know review \u2013 astute drama uncovers an abusive relationship","webUrl":"https:\/\/www.theguardian.com\/stage\/2022\/apr\/11\/i-know-i-know-i-know-review-southwark-playhouse-london","apiUrl":"https:\/\/content.guardianapis.com\/stage\/2022\/apr\/11\/i-know-i-know-i-know-review-southwark-playhouse-london","isHosted":false,"pillarId":"pillar\/arts","pillarName":"Arts"},{"id":"society\/2022\/apr\/29\/what-can-i-do-if-i-cant-get-hrt","type":"article","sectionId":"society","sectionName":"Society","webPublicationDate":"2022-04-29T15:54:04Z","webTitle":"What can I do if I can\u2019t get HRT?","webUrl":"https:\/\/www.theguardian.com\/society\/2022\/apr\/29\/what-can-i-do-if-i-cant-get-hrt","apiUrl":"https:\/\/content.guardianapis.com\/society\/2022\/apr\/29\/what-can-i-do-if-i-cant-get-hrt","isHosted":false,"pillarId":"pillar\/news","pillarName":"News"},{"id":"commentisfree\/2022\/may\/09\/worst-online-abuse-posted-about-dog","type":"article","sectionId":"commentisfree","sectionName":"Opinion","webPublicationDate":"2022-05-09T07:00:23Z","webTitle":"I thought I had seen the worst of online abuse \u2013 then I posted about my dog | Sofie Hagen","webUrl":"https:\/\/www.theguardian.com\/commentisfree\/2022\/may\/09\/worst-online-abuse-posted-about-dog","apiUrl":"https:\/\/content.guardianapis.com\/commentisfree\/2022\/may\/09\/worst-online-abuse-posted-about-dog","isHosted":false,"pillarId":"pillar\/opinion","pillarName":"Opinion"},{"id":"commentisfree\/2022\/may\/04\/ive-no-fewer-than-17-wooden-spoons-but-i-have-a-favourite-and-id-miss-it-for-ever-if-it-went-missing","type":"article","sectionId":"commentisfree","sectionName":"Opinion","webPublicationDate":"2022-05-04T15:55:24Z","webTitle":"I\u2019ve no fewer than 17 wooden spoons. But I have a favourite and I\u2019d miss it for ever if it went missing | Adrian Chiles","webUrl":"https:\/\/www.theguardian.com\/commentisfree\/2022\/may\/04\/ive-no-fewer-than-17-wooden-spoons-but-i-have-a-favourite-and-id-miss-it-for-ever-if-it-went-missing","apiUrl":"https:\/\/content.guardianapis.com\/commentisfree\/2022\/may\/04\/ive-no-fewer-than-17-wooden-spoons-but-i-have-a-favourite-and-id-miss-it-for-ever-if-it-went-missing","isHosted":false,"pillarId":"pillar\/opinion","pillarName":"Opinion"},{"id":"culture\/2022\/mar\/16\/i-thought-i-was-past-teenage-crushes-then-i-saw-benedict-cumberbatch","type":"article","sectionId":"culture","sectionName":"Culture","webPublicationDate":"2022-03-16T16:30:08Z","webTitle":"I thought I was past teenage crushes. Then I saw Benedict Cumberbatch | Tabitha Carvan","webUrl":"https:\/\/www.theguardian.com\/culture\/2022\/mar\/16\/i-thought-i-was-past-teenage-crushes-then-i-saw-benedict-cumberbatch","apiUrl":"https:\/\/content.guardianapis.com\/culture\/2022\/mar\/16\/i-thought-i-was-past-teenage-crushes-then-i-saw-benedict-cumberbatch","isHosted":false,"pillarId":"pillar\/arts","pillarName":"Arts"},{"id":"lifeandstyle\/2022\/may\/07\/blind-date-matt-penny","type":"article","sectionId":"lifeandstyle","sectionName":"Life and style","webPublicationDate":"2022-05-07T05:00:23Z","webTitle":"Blind date: \u2018I guessed she was 10 years younger but she thought I was older than I am\u2019","webUrl":"https:\/\/www.theguardian.com\/lifeandstyle\/2022\/may\/07\/blind-date-matt-penny","apiUrl":"https:\/\/content.guardianapis.com\/lifeandstyle\/2022\/may\/07\/blind-date-matt-penny","isHosted":false,"pillarId":"pillar\/lifestyle","pillarName":"Lifestyle"}]}}