{"response":{"status":"ok","userTier":"developer","total":57505,"startIndex":1,"pageSize":10,"currentPage":1,"pages":5751,"orderBy":"relevance","results":[{"id":"fashion\/2022\/may\/22\/bemi-shaw-beauty-spot-put-zest-in-your-life-with-10-of-the-best-vitamin-c-products","type":"article","sectionId":"fashion","sectionName":"Fashion","webPublicationDate":"2022-05-22T07:30:42Z","webTitle":"Vitamin C products: 10 of the best","webUrl":"https:\/\/www.theguardian.com\/fashion\/2022\/may\/22\/bemi-shaw-beauty-spot-put-zest-in-your-life-with-10-of-the-best-vitamin-c-products","apiUrl":"https:\/\/content.guardianapis.com\/fashion\/2022\/may\/22\/bemi-shaw-beauty-spot-put-zest-in-your-life-with-10-of-the-best-vitamin-c-products","isHosted":false,"pillarId":"pillar\/lifestyle","pillarName":"Lifestyle"},{"id":"media\/2022\/may\/20\/m-and-c-saatchi-accepts-takeover-by-next-fifteen-rejects-vin-murria-adv","type":"article","sectionId":"media","sectionName":"Media","webPublicationDate":"2022-05-20T08:32:55Z","webTitle":"M&C Saatchi accepts \u00a3310m takeover by Next Fifteen","webUrl":"https:\/\/www.theguardian.com\/media\/2022\/may\/20\/m-and-c-saatchi-accepts-takeover-by-next-fifteen-rejects-vin-murria-adv","apiUrl":"https:\/\/content.guardianapis.com\/media\/2022\/may\/20\/m-and-c-saatchi-accepts-takeover-by-next-fifteen-rejects-vin-murria-adv","isHosted":false,"pillarId":"pillar\/news","pillarName":"News"},{"id":"world\/2022\/apr\/12\/c-of-e-procedures-on-racial-injustice-inadequate-says-cambridge-college","type":"article","sectionId":"world","sectionName":"World news","webPublicationDate":"2022-04-11T23:01:02Z","webTitle":"C of E procedures on racial injustice \u2018inadequate\u2019, says Cambridge college","webUrl":"https:\/\/www.theguardian.com\/world\/2022\/apr\/12\/c-of-e-procedures-on-racial-injustice-inadequate-says-cambridge-college","apiUrl":"https:\/\/content.guardianapis.com\/world\/2022\/apr\/12\/c-of-e-procedures-on-racial-injustice-inadequate-says-cambridge-college","isHosted":false,"pillarId":"pillar\/news","pillarName":"News"},{"id":"music\/2022\/feb\/14\/melanie-c-review-tour-spice-girl","type":"article","sectionId":"music","sectionName":"Music","webPublicationDate":"2022-02-14T06:00:09Z","webTitle":"Melanie C review \u2013 high-energy workout brings the love","webUrl":"https:\/\/www.theguardian.com\/music\/2022\/feb\/14\/melanie-c-review-tour-spice-girl","apiUrl":"https:\/\/content.guardianapis.com\/music\/2022\/feb\/14\/melanie-c-review-tour-spice-girl","isHosted":false,"pillarId":"pillar\/arts","pillarName":"Arts"},{"id":"environment\/2022\/feb\/01\/sizewell-c-nuclear-project-issues-have-been-glossed-over","type":"article","sectionId":"environment","sectionName":"Environment","webPublicationDate":"2022-02-01T17:55:14Z","webTitle":"Sizewell C nuclear project issues have been glossed over | Letter","webUrl":"https:\/\/www.theguardian.com\/environment\/2022\/feb\/01\/sizewell-c-nuclear-project-issues-have-been-glossed-over","apiUrl":"https:\/\/content.guardianapis.com\/environment\/2022\/feb\/01\/sizewell-c-nuclear-project-issues-have-been-glossed-over","isHosted":false,"pillarId":"pillar\/news","pillarName":"News"},{"id":"books\/booksblog\/2022\/feb\/21\/poem-of-the-week-dear-life-by-maya-c-popa","type":"article","sectionId":"books","sectionName":"Books","webPublicationDate":"2022-02-21T10:00:03Z","webTitle":"Poem of the week: Dear Life by Maya C Popa","webUrl":"https:\/\/www.theguardian.com\/books\/booksblog\/2022\/feb\/21\/poem-of-the-week-dear-life-by-maya-c-popa","apiUrl":"https:\/\/content.guardianapis.com\/books\/booksblog\/2022\/feb\/21\/poem-of-the-week-dear-life-by-maya-c-popa","isHosted":false,"pillarId":"pillar\/arts","pillarName":"Arts"},{"id":"environment\/2022\/may\/22\/sizewell-c-may-cost-double-government-estimates-and-take-five-years-longer-to-build","type":"article","sectionId":"politics","sectionName":"Politics","webPublicationDate":"2022-05-22T09:56:46Z","webTitle":"Sizewell C \u2018may cost double government estimates and take five years longer to build\u2019","webUrl":"https:\/\/www.theguardian.com\/environment\/2022\/may\/22\/sizewell-c-may-cost-double-government-estimates-and-take-five-years-longer-to-build","apiUrl":"https:\/\/content.guardianapis.com\/environment\/2022\/may\/22\/sizewell-c-may-cost-double-government-estimates-and-take-five-years-longer-to-build","isHosted":false,"pillarId":"pillar\/news","pillarName":"News"},{"id":"artanddesign\/2022\/may\/17\/maud-lewis-painting-black-truck-swapped-cheese-sandwich-sold","type":"article","sectionId":"artanddesign","sectionName":"Art and design","webPublicationDate":"2022-05-17T14:44:15Z","webTitle":"Painting traded for a cheese sandwich in 1973 sold at auction for C$350,000","webUrl":"https:\/\/www.theguardian.com\/artanddesign\/2022\/may\/17\/maud-lewis-painting-black-truck-swapped-cheese-sandwich-sold","apiUrl":"https:\/\/content.guardianapis.com\/artanddesign\/2022\/may\/17\/maud-lewis-painting-black-truck-swapped-cheese-sandwich-sold","isHosted":false,"pillarId":"pillar\/arts","pillarName":"Arts"},{"id":"lifeandstyle\/2022\/apr\/14\/i-was-told-they-didnt-offer-c-sections-the-dangerous-obsession-with-natural-births","type":"article","sectionId":"lifeandstyle","sectionName":"Life and style","webPublicationDate":"2022-04-14T09:00:04Z","webTitle":"\u2018I was told they didn\u2019t offer C-sections\u2019 \u2013 the dangerous obsession with \u2018natural births\u2019","webUrl":"https:\/\/www.theguardian.com\/lifeandstyle\/2022\/apr\/14\/i-was-told-they-didnt-offer-c-sections-the-dangerous-obsession-with-natural-births","apiUrl":"https:\/\/content.guardianapis.com\/lifeandstyle\/2022\/apr\/14\/i-was-told-they-didnt-offer-c-sections-the-dangerous-obsession-with-natural-births","isHosted":false,"pillarId":"pillar\/lifestyle","pillarName":"Lifestyle"},{"id":"world\/2021\/nov\/18\/drivers-should-steer-clear-of-the-c-word","type":"article","sectionId":"world","sectionName":"World news","webPublicationDate":"2021-11-18T17:52:27Z","webTitle":"Drivers should steer clear of the C-word | Brief letters","webUrl":"https:\/\/www.theguardian.com\/world\/2021\/nov\/18\/drivers-should-steer-clear-of-the-c-word","apiUrl":"https:\/\/content.guardianapis.com\/world\/2021\/nov\/18\/drivers-should-steer-clear-of-the-c-word","isHosted":false,"pillarId":"pillar\/news","pillarName":"News"}]}}