{"response":{"status":"ok","userTier":"developer","total":26966,"startIndex":1,"pageSize":10,"currentPage":1,"pages":2697,"orderBy":"relevance","results":[{"id":"business\/2022\/feb\/11\/sharp-rise-in-mixer-prices-fuels-gin-and-tonic-schweppes-fever-tree-inflation","type":"article","sectionId":"business","sectionName":"Business","webPublicationDate":"2022-02-11T14:51:31Z","webTitle":"Not quite the tonic \u2026 sharp jump in mixer prices fuels G&T inflation","webUrl":"https:\/\/www.theguardian.com\/business\/2022\/feb\/11\/sharp-rise-in-mixer-prices-fuels-gin-and-tonic-schweppes-fever-tree-inflation","apiUrl":"https:\/\/content.guardianapis.com\/business\/2022\/feb\/11\/sharp-rise-in-mixer-prices-fuels-gin-and-tonic-schweppes-fever-tree-inflation","isHosted":false,"pillarId":"pillar\/news","pillarName":"News"},{"id":"us-news\/2021\/apr\/07\/g-gordon-liddy-obituary","type":"article","sectionId":"us-news","sectionName":"US news","webPublicationDate":"2021-04-07T13:33:38Z","webTitle":"G Gordon Liddy obituary","webUrl":"https:\/\/www.theguardian.com\/us-news\/2021\/apr\/07\/g-gordon-liddy-obituary","apiUrl":"https:\/\/content.guardianapis.com\/us-news\/2021\/apr\/07\/g-gordon-liddy-obituary","isHosted":false,"pillarId":"pillar\/news","pillarName":"News"},{"id":"tv-and-radio\/2021\/dec\/01\/kenny-g-jazz-music-hbo-documentary","type":"article","sectionId":"tv-and-radio","sectionName":"Television & radio","webPublicationDate":"2021-12-01T07:04:00Z","webTitle":"Kenny G: \u2018Criticism didn\u2019t affect me then, and it doesn\u2019t affect me now\u2019","webUrl":"https:\/\/www.theguardian.com\/tv-and-radio\/2021\/dec\/01\/kenny-g-jazz-music-hbo-documentary","apiUrl":"https:\/\/content.guardianapis.com\/tv-and-radio\/2021\/dec\/01\/kenny-g-jazz-music-hbo-documentary","isHosted":false,"pillarId":"pillar\/arts","pillarName":"Arts"},{"id":"money\/2021\/aug\/24\/relax-with-dg-not-when-it-didnt-have-me-covered","type":"article","sectionId":"money","sectionName":"Money","webPublicationDate":"2021-08-24T06:00:25Z","webTitle":"Relax with D&G? Not when it didn\u2019t have me covered","webUrl":"https:\/\/www.theguardian.com\/money\/2021\/aug\/24\/relax-with-dg-not-when-it-didnt-have-me-covered","apiUrl":"https:\/\/content.guardianapis.com\/money\/2021\/aug\/24\/relax-with-dg-not-when-it-didnt-have-me-covered","isHosted":false,"pillarId":"pillar\/lifestyle","pillarName":"Lifestyle"},{"id":"business\/2021\/aug\/04\/city-of-london-still-fairly-empty-says-lg-boss-as-covid-restrictions-lift","type":"article","sectionId":"business","sectionName":"Business","webPublicationDate":"2021-08-04T18:59:29Z","webTitle":"City of London \u2018still fairly empty\u2019 says L&G boss as Covid restrictions lift","webUrl":"https:\/\/www.theguardian.com\/business\/2021\/aug\/04\/city-of-london-still-fairly-empty-says-lg-boss-as-covid-restrictions-lift","apiUrl":"https:\/\/content.guardianapis.com\/business\/2021\/aug\/04\/city-of-london-still-fairly-empty-says-lg-boss-as-covid-restrictions-lift","isHosted":false,"pillarId":"pillar\/news","pillarName":"News"},{"id":"lifeandstyle\/2021\/jul\/18\/sunday-with-julian-clary-i-have-a-g-and-t-at-noon-in-memory-of-my-grandfather","type":"article","sectionId":"lifeandstyle","sectionName":"Life and style","webPublicationDate":"2021-07-18T05:45:21Z","webTitle":"Sunday with Julian Clary: \u2018A G&T at noon in memory of my grandfather\u2019","webUrl":"https:\/\/www.theguardian.com\/lifeandstyle\/2021\/jul\/18\/sunday-with-julian-clary-i-have-a-g-and-t-at-noon-in-memory-of-my-grandfather","apiUrl":"https:\/\/content.guardianapis.com\/lifeandstyle\/2021\/jul\/18\/sunday-with-julian-clary-i-have-a-g-and-t-at-noon-in-memory-of-my-grandfather","isHosted":false,"pillarId":"pillar\/lifestyle","pillarName":"Lifestyle"},{"id":"music\/2021\/jun\/14\/polo-g-death-and-depression-made-me-lean-towards-music-it-became-therapeutic","type":"article","sectionId":"music","sectionName":"Music","webPublicationDate":"2021-06-14T10:05:43Z","webTitle":"Polo G: \u2018Death and depression made me lean towards music. It became therapeutic\u2019","webUrl":"https:\/\/www.theguardian.com\/music\/2021\/jun\/14\/polo-g-death-and-depression-made-me-lean-towards-music-it-became-therapeutic","apiUrl":"https:\/\/content.guardianapis.com\/music\/2021\/jun\/14\/polo-g-death-and-depression-made-me-lean-towards-music-it-became-therapeutic","isHosted":false,"pillarId":"pillar\/arts","pillarName":"Arts"},{"id":"society\/2022\/may\/15\/tory-mp-lee-anderson-serves-up-a-30p-recipe-for-ridicule","type":"article","sectionId":"society","sectionName":"Society","webPublicationDate":"2022-05-15T16:06:29Z","webTitle":"Tory MP Lee Anderson serves up a 30p recipe for ridicule | Letters","webUrl":"https:\/\/www.theguardian.com\/society\/2022\/may\/15\/tory-mp-lee-anderson-serves-up-a-30p-recipe-for-ridicule","apiUrl":"https:\/\/content.guardianapis.com\/society\/2022\/may\/15\/tory-mp-lee-anderson-serves-up-a-30p-recipe-for-ridicule","isHosted":false,"pillarId":"pillar\/news","pillarName":"News"},{"id":"lifeandstyle\/2022\/mar\/19\/a-shopping-guide-to-the-best-miniskirts","type":"article","sectionId":"lifeandstyle","sectionName":"Life and style","webPublicationDate":"2022-03-19T06:00:19Z","webTitle":"A shopping guide to the best \u2026 miniskirts","webUrl":"https:\/\/www.theguardian.com\/lifeandstyle\/2022\/mar\/19\/a-shopping-guide-to-the-best-miniskirts","apiUrl":"https:\/\/content.guardianapis.com\/lifeandstyle\/2022\/mar\/19\/a-shopping-guide-to-the-best-miniskirts","isHosted":false,"pillarId":"pillar\/lifestyle","pillarName":"Lifestyle"},{"id":"commentisfree\/2021\/jun\/13\/g7-g-zero-world-national-self-interest-parochially","type":"article","sectionId":"commentisfree","sectionName":"Opinion","webPublicationDate":"2021-06-13T16:57:36Z","webTitle":"This G7 reflects our G-zero world, ruled by self-interest instead of global ambition | Tom Kibasi","webUrl":"https:\/\/www.theguardian.com\/commentisfree\/2021\/jun\/13\/g7-g-zero-world-national-self-interest-parochially","apiUrl":"https:\/\/content.guardianapis.com\/commentisfree\/2021\/jun\/13\/g7-g-zero-world-national-self-interest-parochially","isHosted":false,"pillarId":"pillar\/opinion","pillarName":"Opinion"}]}}