{"response":{"status":"ok","userTier":"developer","total":42005,"startIndex":1,"pageSize":10,"currentPage":1,"pages":4201,"orderBy":"relevance","results":[{"id":"film\/2022\/mar\/20\/x-review-bumpngrindhouse-from-horror-director-ti-west","type":"article","sectionId":"film","sectionName":"Film","webPublicationDate":"2022-03-20T12:30:55Z","webTitle":"X review \u2013 Bump\u2019n\u2019grindhouse from horror director Ti West","webUrl":"https:\/\/www.theguardian.com\/film\/2022\/mar\/20\/x-review-bumpngrindhouse-from-horror-director-ti-west","apiUrl":"https:\/\/content.guardianapis.com\/film\/2022\/mar\/20\/x-review-bumpngrindhouse-from-horror-director-ti-west","isHosted":false,"pillarId":"pillar\/arts","pillarName":"Arts"},{"id":"sport\/2022\/may\/10\/rugby-union-newest-star-henry-arundell-has-x-factor-all-teams-crave-the-breakdown","type":"article","sectionId":"sport","sectionName":"Sport","webPublicationDate":"2022-05-10T09:00:34Z","webTitle":"The Breakdown | Rugby\u2019s newest star Henry Arundell has the X-factor that all teams crave","webUrl":"https:\/\/www.theguardian.com\/sport\/2022\/may\/10\/rugby-union-newest-star-henry-arundell-has-x-factor-all-teams-crave-the-breakdown","apiUrl":"https:\/\/content.guardianapis.com\/sport\/2022\/may\/10\/rugby-union-newest-star-henry-arundell-has-x-factor-all-teams-crave-the-breakdown","isHosted":false,"pillarId":"pillar\/sport","pillarName":"Sport"},{"id":"world\/2022\/apr\/11\/sword-hidden-cane-tsa-scan-logan-airport","type":"article","sectionId":"world","sectionName":"World news","webPublicationDate":"2022-04-11T14:27:54Z","webTitle":"Sword found hidden in cane during X-ray scan at Logan airport","webUrl":"https:\/\/www.theguardian.com\/world\/2022\/apr\/11\/sword-hidden-cane-tsa-scan-logan-airport","apiUrl":"https:\/\/content.guardianapis.com\/world\/2022\/apr\/11\/sword-hidden-cane-tsa-scan-logan-airport","isHosted":false,"pillarId":"pillar\/news","pillarName":"News"},{"id":"music\/2022\/apr\/30\/manchester-collective-abel-selaocoe-the-oracle-qeh-queen-elizabeth-hall-london-review-music-at-malling-six-brandeburgs-six-commissions-music-x-museums-british-library-academy-of-st-martin-in-the-fields-zeffman-beethoven","type":"article","sectionId":"music","sectionName":"Music","webPublicationDate":"2022-04-30T11:30:54Z","webTitle":"The week in classical: Manchester Collective & Abel Selaocoe; Music@Malling; Music x Museums","webUrl":"https:\/\/www.theguardian.com\/music\/2022\/apr\/30\/manchester-collective-abel-selaocoe-the-oracle-qeh-queen-elizabeth-hall-london-review-music-at-malling-six-brandeburgs-six-commissions-music-x-museums-british-library-academy-of-st-martin-in-the-fields-zeffman-beethoven","apiUrl":"https:\/\/content.guardianapis.com\/music\/2022\/apr\/30\/manchester-collective-abel-selaocoe-the-oracle-qeh-queen-elizabeth-hall-london-review-music-at-malling-six-brandeburgs-six-commissions-music-x-museums-british-library-academy-of-st-martin-in-the-fields-zeffman-beethoven","isHosted":false,"pillarId":"pillar\/arts","pillarName":"Arts"},{"id":"film\/2022\/may\/23\/colin-cantwell-star-wars-designer-behind-the-x-wing-and-death-star-dies-aged-90","type":"article","sectionId":"film","sectionName":"Film","webPublicationDate":"2022-05-23T02:15:20Z","webTitle":"Colin Cantwell, Star Wars designer behind the X-Wing and Death Star, dies aged 90","webUrl":"https:\/\/www.theguardian.com\/film\/2022\/may\/23\/colin-cantwell-star-wars-designer-behind-the-x-wing-and-death-star-dies-aged-90","apiUrl":"https:\/\/content.guardianapis.com\/film\/2022\/may\/23\/colin-cantwell-star-wars-designer-behind-the-x-wing-and-death-star-dies-aged-90","isHosted":false,"pillarId":"pillar\/arts","pillarName":"Arts"},{"id":"film\/2022\/mar\/16\/x-review-back-to-basics-slasher-pits-porn-stars-against-elderly-killers","type":"article","sectionId":"film","sectionName":"Film","webPublicationDate":"2022-03-16T13:14:13Z","webTitle":"X review \u2013 back-to-basics slasher pits porn stars against elderly killers","webUrl":"https:\/\/www.theguardian.com\/film\/2022\/mar\/16\/x-review-back-to-basics-slasher-pits-porn-stars-against-elderly-killers","apiUrl":"https:\/\/content.guardianapis.com\/film\/2022\/mar\/16\/x-review-back-to-basics-slasher-pits-porn-stars-against-elderly-killers","isHosted":false,"pillarId":"pillar\/arts","pillarName":"Arts"},{"id":"games\/2021\/dec\/14\/the-10-best-games-on-xbox-series-sx","type":"article","sectionId":"games","sectionName":"Games","webPublicationDate":"2021-12-14T11:15:00Z","webTitle":"The 10 best games on Xbox Series S\/X","webUrl":"https:\/\/www.theguardian.com\/games\/2021\/dec\/14\/the-10-best-games-on-xbox-series-sx","apiUrl":"https:\/\/content.guardianapis.com\/games\/2021\/dec\/14\/the-10-best-games-on-xbox-series-sx","isHosted":false,"pillarId":"pillar\/arts","pillarName":"Arts"},{"id":"australia-news\/2022\/apr\/21\/an-x-on-the-map-inland-rail-flood-measures-fail-to-reassure-regional-nsw-communities","type":"article","sectionId":"australia-news","sectionName":"Australia news","webPublicationDate":"2022-04-20T17:30:32Z","webTitle":"\u2018An X on the map\u2019: inland rail flood measures fail to reassure regional NSW communities","webUrl":"https:\/\/www.theguardian.com\/australia-news\/2022\/apr\/21\/an-x-on-the-map-inland-rail-flood-measures-fail-to-reassure-regional-nsw-communities","apiUrl":"https:\/\/content.guardianapis.com\/australia-news\/2022\/apr\/21\/an-x-on-the-map-inland-rail-flood-measures-fail-to-reassure-regional-nsw-communities","isHosted":false,"pillarId":"pillar\/news","pillarName":"News"},{"id":"australia-news\/2022\/may\/04\/expert-warned-against-wrist-x-rays-used-by-afp-to-prosecute-children-as-adult-people-smugglers","type":"article","sectionId":"australia-news","sectionName":"Australia news","webPublicationDate":"2022-05-03T17:30:45Z","webTitle":"Expert warned against wrist X-rays used by AFP to prosecute children as adult people smugglers","webUrl":"https:\/\/www.theguardian.com\/australia-news\/2022\/may\/04\/expert-warned-against-wrist-x-rays-used-by-afp-to-prosecute-children-as-adult-people-smugglers","apiUrl":"https:\/\/content.guardianapis.com\/australia-news\/2022\/may\/04\/expert-warned-against-wrist-x-rays-used-by-afp-to-prosecute-children-as-adult-people-smugglers","isHosted":false,"pillarId":"pillar\/news","pillarName":"News"},{"id":"tv-and-radio\/2022\/mar\/03\/tv-tonight-sir-ian-mckellen-reflects-on-gay-kisses-and-x-mens-origins","type":"article","sectionId":"tv-and-radio","sectionName":"Television & radio","webPublicationDate":"2022-03-03T06:20:00Z","webTitle":"TV tonight: Sir Ian McKellen reflects on gay kisses and X-Men\u2019s origins","webUrl":"https:\/\/www.theguardian.com\/tv-and-radio\/2022\/mar\/03\/tv-tonight-sir-ian-mckellen-reflects-on-gay-kisses-and-x-mens-origins","apiUrl":"https:\/\/content.guardianapis.com\/tv-and-radio\/2022\/mar\/03\/tv-tonight-sir-ian-mckellen-reflects-on-gay-kisses-and-x-mens-origins","isHosted":false,"pillarId":"pillar\/arts","pillarName":"Arts"}]}}