{"response":{"status":"ok","userTier":"developer","total":25351,"startIndex":1,"pageSize":10,"currentPage":1,"pages":2536,"orderBy":"relevance","results":[{"id":"business\/2022\/may\/23\/bq-kingfisher-inflation-diy-demand-sales-covid","type":"article","sectionId":"business","sectionName":"Business","webPublicationDate":"2022-05-23T08:31:05Z","webTitle":"B&Q owner Kingfisher \u2018managing inflation\u2019 as DIY demand continues","webUrl":"https:\/\/www.theguardian.com\/business\/2022\/may\/23\/bq-kingfisher-inflation-diy-demand-sales-covid","apiUrl":"https:\/\/content.guardianapis.com\/business\/2022\/may\/23\/bq-kingfisher-inflation-diy-demand-sales-covid","isHosted":false,"pillarId":"pillar\/news","pillarName":"News"},{"id":"education\/2022\/apr\/20\/child-q-strip-search-school-head-stepping-down-ill-health","type":"article","sectionId":"education","sectionName":"Education","webPublicationDate":"2022-04-20T15:51:59Z","webTitle":"Child Q: school says head stepping down due to ill health","webUrl":"https:\/\/www.theguardian.com\/education\/2022\/apr\/20\/child-q-strip-search-school-head-stepping-down-ill-health","apiUrl":"https:\/\/content.guardianapis.com\/education\/2022\/apr\/20\/child-q-strip-search-school-head-stepping-down-ill-health","isHosted":false,"pillarId":"pillar\/news","pillarName":"News"},{"id":"politics\/2022\/may\/03\/qa-key-questions-facing-keir-starmer-over-office-beer-during-lockdown","type":"article","sectionId":"politics","sectionName":"Politics","webPublicationDate":"2022-05-03T16:32:14Z","webTitle":"Q&A: key questions facing Keir Starmer over office beer during lockdown","webUrl":"https:\/\/www.theguardian.com\/politics\/2022\/may\/03\/qa-key-questions-facing-keir-starmer-over-office-beer-during-lockdown","apiUrl":"https:\/\/content.guardianapis.com\/politics\/2022\/may\/03\/qa-key-questions-facing-keir-starmer-over-office-beer-during-lockdown","isHosted":false,"pillarId":"pillar\/news","pillarName":"News"},{"id":"technology\/2022\/may\/16\/qa-the-collapse-of-terra-and-what-it-could-mean-beyond-crypto","type":"article","sectionId":"technology","sectionName":"Technology","webPublicationDate":"2022-05-16T17:09:20Z","webTitle":"Q&A: the collapse of terra and what it could mean beyond crypto","webUrl":"https:\/\/www.theguardian.com\/technology\/2022\/may\/16\/qa-the-collapse-of-terra-and-what-it-could-mean-beyond-crypto","apiUrl":"https:\/\/content.guardianapis.com\/technology\/2022\/may\/16\/qa-the-collapse-of-terra-and-what-it-could-mean-beyond-crypto","isHosted":false,"pillarId":"pillar\/news","pillarName":"News"},{"id":"uk-news\/2022\/mar\/20\/it-can-never-happen-again-hundreds-gather-in-support-of-child-q","type":"article","sectionId":"uk-news","sectionName":"UK news","webPublicationDate":"2022-03-20T19:36:39Z","webTitle":"\u2018It can never happen again\u2019: hundreds gather in support of Child Q","webUrl":"https:\/\/www.theguardian.com\/uk-news\/2022\/mar\/20\/it-can-never-happen-again-hundreds-gather-in-support-of-child-q","apiUrl":"https:\/\/content.guardianapis.com\/uk-news\/2022\/mar\/20\/it-can-never-happen-again-hundreds-gather-in-support-of-child-q","isHosted":false,"pillarId":"pillar\/news","pillarName":"News"},{"id":"environment\/2022\/mar\/05\/qa-has-the-ipccs-bleak-warning-of-climate-breakdown-been-heard","type":"article","sectionId":"environment","sectionName":"Environment","webPublicationDate":"2022-03-05T10:00:21Z","webTitle":"Q&A: Has the IPCC\u2019s bleak warning of climate breakdown been heard?","webUrl":"https:\/\/www.theguardian.com\/environment\/2022\/mar\/05\/qa-has-the-ipccs-bleak-warning-of-climate-breakdown-been-heard","apiUrl":"https:\/\/content.guardianapis.com\/environment\/2022\/mar\/05\/qa-has-the-ipccs-bleak-warning-of-climate-breakdown-been-heard","isHosted":false,"pillarId":"pillar\/news","pillarName":"News"},{"id":"uk-news\/2022\/mar\/25\/child-q-school-confirms-staff-were-not-aware-strip-search-had-taken-place","type":"article","sectionId":"education","sectionName":"Education","webPublicationDate":"2022-03-25T17:01:35Z","webTitle":"Child Q school confirms staff were not aware strip search had taken place","webUrl":"https:\/\/www.theguardian.com\/uk-news\/2022\/mar\/25\/child-q-school-confirms-staff-were-not-aware-strip-search-had-taken-place","apiUrl":"https:\/\/content.guardianapis.com\/uk-news\/2022\/mar\/25\/child-q-school-confirms-staff-were-not-aware-strip-search-had-taken-place","isHosted":false,"pillarId":"pillar\/news","pillarName":"News"},{"id":"business\/2022\/mar\/22\/bq-screwfix-staff-pay-rise-diy-kingfisher","type":"article","sectionId":"business","sectionName":"Business","webPublicationDate":"2022-03-22T10:57:45Z","webTitle":"B&Q and Screwfix staff to get pay rise as DIY boom continues","webUrl":"https:\/\/www.theguardian.com\/business\/2022\/mar\/22\/bq-screwfix-staff-pay-rise-diy-kingfisher","apiUrl":"https:\/\/content.guardianapis.com\/business\/2022\/mar\/22\/bq-screwfix-staff-pay-rise-diy-kingfisher","isHosted":false,"pillarId":"pillar\/news","pillarName":"News"},{"id":"education\/2022\/apr\/11\/teachers-say-they-no-longer-want-police-based-in-schools-after-child-q-outrage","type":"article","sectionId":"education","sectionName":"Education","webPublicationDate":"2022-04-11T17:37:17Z","webTitle":"Teachers say they no longer want police based in schools after Child Q outrage","webUrl":"https:\/\/www.theguardian.com\/education\/2022\/apr\/11\/teachers-say-they-no-longer-want-police-based-in-schools-after-child-q-outrage","apiUrl":"https:\/\/content.guardianapis.com\/education\/2022\/apr\/11\/teachers-say-they-no-longer-want-police-based-in-schools-after-child-q-outrage","isHosted":false,"pillarId":"pillar\/news","pillarName":"News"},{"id":"uk-news\/2022\/mar\/20\/met-rebuked-for-strip-searches-two-years-before-child-q-case-in-hackney","type":"article","sectionId":"uk-news","sectionName":"UK news","webPublicationDate":"2022-03-20T09:15:51Z","webTitle":"Met rebuked for strip searches two years before Child Q case in Hackney","webUrl":"https:\/\/www.theguardian.com\/uk-news\/2022\/mar\/20\/met-rebuked-for-strip-searches-two-years-before-child-q-case-in-hackney","apiUrl":"https:\/\/content.guardianapis.com\/uk-news\/2022\/mar\/20\/met-rebuked-for-strip-searches-two-years-before-child-q-case-in-hackney","isHosted":false,"pillarId":"pillar\/news","pillarName":"News"}]}}