{"response":{"status":"ok","userTier":"developer","total":22526,"startIndex":1,"pageSize":10,"currentPage":1,"pages":2253,"orderBy":"relevance","results":[{"id":"film\/2022\/mar\/26\/oscars-samuel-l-jackson-and-elaine-may-honorary-governors-awards","type":"article","sectionId":"film","sectionName":"Film","webPublicationDate":"2022-03-26T10:58:27Z","webTitle":"\u2018This is going to be cherished\u2019: Samuel L Jackson and Elaine May receive honorary Oscars","webUrl":"https:\/\/www.theguardian.com\/film\/2022\/mar\/26\/oscars-samuel-l-jackson-and-elaine-may-honorary-governors-awards","apiUrl":"https:\/\/content.guardianapis.com\/film\/2022\/mar\/26\/oscars-samuel-l-jackson-and-elaine-may-honorary-governors-awards","isHosted":false,"pillarId":"pillar\/arts","pillarName":"Arts"},{"id":"tv-and-radio\/2022\/mar\/10\/the-last-days-of-ptolemy-grey-review-this-is-samuel-l-jacksons-career-best-performance","type":"article","sectionId":"tv-and-radio","sectionName":"Television & radio","webPublicationDate":"2022-03-10T16:41:08Z","webTitle":"The Last Days of Ptolemy Grey review \u2013 this is Samuel L Jackson\u2019s career-best performance","webUrl":"https:\/\/www.theguardian.com\/tv-and-radio\/2022\/mar\/10\/the-last-days-of-ptolemy-grey-review-this-is-samuel-l-jacksons-career-best-performance","apiUrl":"https:\/\/content.guardianapis.com\/tv-and-radio\/2022\/mar\/10\/the-last-days-of-ptolemy-grey-review-this-is-samuel-l-jacksons-career-best-performance","isHosted":false,"pillarId":"pillar\/arts","pillarName":"Arts"},{"id":"film\/2021\/jun\/03\/samuel-l-jacksons-20-best-films-ranked","type":"article","sectionId":"film","sectionName":"Film","webPublicationDate":"2021-06-03T11:00:08Z","webTitle":"Samuel L Jackson\u2019s 20 best films \u2013 ranked!","webUrl":"https:\/\/www.theguardian.com\/film\/2021\/jun\/03\/samuel-l-jacksons-20-best-films-ranked","apiUrl":"https:\/\/content.guardianapis.com\/film\/2021\/jun\/03\/samuel-l-jacksons-20-best-films-ranked","isHosted":false,"pillarId":"pillar\/arts","pillarName":"Arts"},{"id":"guardian-observer-style-guide-l","type":"article","sectionId":"info","sectionName":"Info","webPublicationDate":"2021-04-30T13:39:13Z","webTitle":"Guardian and Observer style guide: L","webUrl":"https:\/\/www.theguardian.com\/guardian-observer-style-guide-l","apiUrl":"https:\/\/content.guardianapis.com\/guardian-observer-style-guide-l","isHosted":false,"pillarId":"pillar\/news","pillarName":"News"},{"id":"tv-and-radio\/2022\/feb\/07\/ive-had-letters-from-klansmen-jennifer-beals-on-flashdance-the-l-word-and-fighting-to-get-diverse-stories-told","type":"article","sectionId":"tv-and-radio","sectionName":"Television & radio","webPublicationDate":"2022-02-07T06:00:03Z","webTitle":"\u2018I\u2019ve had letters from klansmen\u2019: Jennifer Beals on Flashdance, The L Word and fighting to get diverse stories told","webUrl":"https:\/\/www.theguardian.com\/tv-and-radio\/2022\/feb\/07\/ive-had-letters-from-klansmen-jennifer-beals-on-flashdance-the-l-word-and-fighting-to-get-diverse-stories-told","apiUrl":"https:\/\/content.guardianapis.com\/tv-and-radio\/2022\/feb\/07\/ive-had-letters-from-klansmen-jennifer-beals-on-flashdance-the-l-word-and-fighting-to-get-diverse-stories-told","isHosted":false,"pillarId":"pillar\/arts","pillarName":"Arts"},{"id":"society\/2021\/aug\/29\/housing-association-lq-is-still-failing-residents-years-after-expose","type":"article","sectionId":"society","sectionName":"Society","webPublicationDate":"2021-08-29T06:45:10Z","webTitle":"Housing association L&Q is still failing residents years after expos\u00e9","webUrl":"https:\/\/www.theguardian.com\/society\/2021\/aug\/29\/housing-association-lq-is-still-failing-residents-years-after-expose","apiUrl":"https:\/\/content.guardianapis.com\/society\/2021\/aug\/29\/housing-association-lq-is-still-failing-residents-years-after-expose","isHosted":false,"pillarId":"pillar\/news","pillarName":"News"},{"id":"books\/2021\/aug\/15\/the-reckoning-mary-l-trump-review-america-trauma-donald-racism-antisemitism","type":"article","sectionId":"books","sectionName":"Books","webPublicationDate":"2021-08-15T05:00:05Z","webTitle":"The Reckoning by Mary L Trump review \u2013 how to heal America\u2019s trauma","webUrl":"https:\/\/www.theguardian.com\/books\/2021\/aug\/15\/the-reckoning-mary-l-trump-review-america-trauma-donald-racism-antisemitism","apiUrl":"https:\/\/content.guardianapis.com\/books\/2021\/aug\/15\/the-reckoning-mary-l-trump-review-america-trauma-donald-racism-antisemitism","isHosted":false,"pillarId":"pillar\/arts","pillarName":"Arts"},{"id":"commentisfree\/2022\/apr\/28\/the-trumpian-right-keeps-pushing-rule-of-law-to-the-brink-but-the-law-is-winning","type":"article","sectionId":"commentisfree","sectionName":"Opinion","webPublicationDate":"2022-04-28T12:49:25Z","webTitle":"The Trumpian right keeps pushing rule of law to the brink.  But the law is winning | Norman L Eisen and Dennis Aftergut","webUrl":"https:\/\/www.theguardian.com\/commentisfree\/2022\/apr\/28\/the-trumpian-right-keeps-pushing-rule-of-law-to-the-brink-but-the-law-is-winning","apiUrl":"https:\/\/content.guardianapis.com\/commentisfree\/2022\/apr\/28\/the-trumpian-right-keeps-pushing-rule-of-law-to-the-brink-but-the-law-is-winning","isHosted":false,"pillarId":"pillar\/opinion","pillarName":"Opinion"},{"id":"news\/2022\/jan\/09\/corrections-and-clarifications","type":"article","sectionId":"news","sectionName":"News","webPublicationDate":"2022-01-09T21:00:30Z","webTitle":"Corrections and clarifications","webUrl":"https:\/\/www.theguardian.com\/news\/2022\/jan\/09\/corrections-and-clarifications","apiUrl":"https:\/\/content.guardianapis.com\/news\/2022\/jan\/09\/corrections-and-clarifications","isHosted":false,"pillarId":"pillar\/news","pillarName":"News"},{"id":"sport\/live\/2021\/sep\/19\/england-v-new-zealand-second-womens-one-day-international-live","type":"liveblog","sectionId":"sport","sectionName":"Sport","webPublicationDate":"2021-09-19T17:28:11Z","webTitle":"England beat New Zealand by 13 runs (D\/L) in second women\u2019s ODI \u2013 as it happened!","webUrl":"https:\/\/www.theguardian.com\/sport\/live\/2021\/sep\/19\/england-v-new-zealand-second-womens-one-day-international-live","apiUrl":"https:\/\/content.guardianapis.com\/sport\/live\/2021\/sep\/19\/england-v-new-zealand-second-womens-one-day-international-live","isHosted":false,"pillarId":"pillar\/sport","pillarName":"Sport"}]}}