{"response":{"status":"ok","userTier":"developer","total":60744,"startIndex":1,"pageSize":10,"currentPage":1,"pages":6075,"orderBy":"relevance","results":[{"id":"uk-news\/2022\/apr\/11\/e-scooter-scheme-could-close-over-dubious-russia-links","type":"article","sectionId":"uk-news","sectionName":"UK news","webPublicationDate":"2022-04-11T18:21:17Z","webTitle":"E-scooter scheme could close over \u2018dubious\u2019 Russia links","webUrl":"https:\/\/www.theguardian.com\/uk-news\/2022\/apr\/11\/e-scooter-scheme-could-close-over-dubious-russia-links","apiUrl":"https:\/\/content.guardianapis.com\/uk-news\/2022\/apr\/11\/e-scooter-scheme-could-close-over-dubious-russia-links","isHosted":false,"pillarId":"pillar\/news","pillarName":"News"},{"id":"travel\/2022\/may\/03\/helgeland-vega-islands-e-bikes-in-northern-norway-scandinavia","type":"article","sectionId":"travel","sectionName":"Travel","webPublicationDate":"2022-05-03T06:00:15Z","webTitle":"An archipelago pedal: e-bikes and islands in northern Norway","webUrl":"https:\/\/www.theguardian.com\/travel\/2022\/may\/03\/helgeland-vega-islands-e-bikes-in-northern-norway-scandinavia","apiUrl":"https:\/\/content.guardianapis.com\/travel\/2022\/may\/03\/helgeland-vega-islands-e-bikes-in-northern-norway-scandinavia","isHosted":false,"pillarId":"pillar\/lifestyle","pillarName":"Lifestyle"},{"id":"world\/2022\/apr\/12\/c-of-e-procedures-on-racial-injustice-inadequate-says-cambridge-college","type":"article","sectionId":"world","sectionName":"World news","webPublicationDate":"2022-04-11T23:01:02Z","webTitle":"C of E procedures on racial injustice \u2018inadequate\u2019, says Cambridge college","webUrl":"https:\/\/www.theguardian.com\/world\/2022\/apr\/12\/c-of-e-procedures-on-racial-injustice-inadequate-says-cambridge-college","apiUrl":"https:\/\/content.guardianapis.com\/world\/2022\/apr\/12\/c-of-e-procedures-on-racial-injustice-inadequate-says-cambridge-college","isHosted":false,"pillarId":"pillar\/news","pillarName":"News"},{"id":"society\/2022\/may\/16\/e-cigarettes-as-safe-as-nicotine-patches-for-pregnant-smokers-trying-to-quit","type":"article","sectionId":"society","sectionName":"Society","webPublicationDate":"2022-05-16T15:47:23Z","webTitle":"E-cigarettes \u2018as safe as nicotine patches\u2019 for pregnant smokers trying to quit","webUrl":"https:\/\/www.theguardian.com\/society\/2022\/may\/16\/e-cigarettes-as-safe-as-nicotine-patches-for-pregnant-smokers-trying-to-quit","apiUrl":"https:\/\/content.guardianapis.com\/society\/2022\/may\/16\/e-cigarettes-as-safe-as-nicotine-patches-for-pregnant-smokers-trying-to-quit","isHosted":false,"pillarId":"pillar\/news","pillarName":"News"},{"id":"uk-news\/2022\/mar\/31\/scientists-creating-e-scooter-sound-to-help-blind-people-detect-them","type":"article","sectionId":"world","sectionName":"World news","webPublicationDate":"2022-03-31T16:15:16Z","webTitle":"Scientists creating universal e-scooter sound to help pedestrians detect them","webUrl":"https:\/\/www.theguardian.com\/uk-news\/2022\/mar\/31\/scientists-creating-e-scooter-sound-to-help-blind-people-detect-them","apiUrl":"https:\/\/content.guardianapis.com\/uk-news\/2022\/mar\/31\/scientists-creating-e-scooter-sound-to-help-blind-people-detect-them","isHosted":false,"pillarId":"pillar\/news","pillarName":"News"},{"id":"commentisfree\/2022\/apr\/15\/doctors-medication-80-hour-a-and-e-ordeal-nhs","type":"article","sectionId":"commentisfree","sectionName":"Opinion","webPublicationDate":"2022-04-15T09:00:27Z","webTitle":"No sleep, little care, no medication: my 80-hour A&E ordeal | Fay Schopen","webUrl":"https:\/\/www.theguardian.com\/commentisfree\/2022\/apr\/15\/doctors-medication-80-hour-a-and-e-ordeal-nhs","apiUrl":"https:\/\/content.guardianapis.com\/commentisfree\/2022\/apr\/15\/doctors-medication-80-hour-a-and-e-ordeal-nhs","isHosted":false,"pillarId":"pillar\/opinion","pillarName":"Opinion"},{"id":"travel\/2021\/aug\/27\/easy-cycling-the-swiss-alps-by-e-bike-haute-route","type":"article","sectionId":"travel","sectionName":"Travel","webPublicationDate":"2021-08-27T11:07:37Z","webTitle":"E for easy: cycling the Swiss Alps by e-bike","webUrl":"https:\/\/www.theguardian.com\/travel\/2021\/aug\/27\/easy-cycling-the-swiss-alps-by-e-bike-haute-route","apiUrl":"https:\/\/content.guardianapis.com\/travel\/2021\/aug\/27\/easy-cycling-the-swiss-alps-by-e-bike-haute-route","isHosted":false,"pillarId":"pillar\/lifestyle","pillarName":"Lifestyle"},{"id":"society\/2022\/may\/21\/revealed-one-in-five-patients-leave-some-ae-departments-in-england-without-treatment","type":"article","sectionId":"society","sectionName":"Society","webPublicationDate":"2022-05-21T16:00:24Z","webTitle":"Revealed: one in five patients leave some A&E departments in England without treatment","webUrl":"https:\/\/www.theguardian.com\/society\/2022\/may\/21\/revealed-one-in-five-patients-leave-some-ae-departments-in-england-without-treatment","apiUrl":"https:\/\/content.guardianapis.com\/society\/2022\/may\/21\/revealed-one-in-five-patients-leave-some-ae-departments-in-england-without-treatment","isHosted":false,"pillarId":"pillar\/news","pillarName":"News"},{"id":"society\/2022\/jan\/15\/biological-e-corbevax-covid-vaccine","type":"article","sectionId":"society","sectionName":"Society","webPublicationDate":"2022-01-15T10:00:18Z","webTitle":"What is Biological E, the Indian company producing Corbevax?","webUrl":"https:\/\/www.theguardian.com\/society\/2022\/jan\/15\/biological-e-corbevax-covid-vaccine","apiUrl":"https:\/\/content.guardianapis.com\/society\/2022\/jan\/15\/biological-e-corbevax-covid-vaccine","isHosted":false,"pillarId":"pillar\/news","pillarName":"News"},{"id":"uk-news\/2022\/mar\/21\/14-year-old-girl-dies-after-crash-with-van-while-riding-e-scooter-in-london","type":"article","sectionId":"uk-news","sectionName":"UK news","webPublicationDate":"2022-03-21T18:19:59Z","webTitle":"Teen dies after crash with van while riding e-scooter in London","webUrl":"https:\/\/www.theguardian.com\/uk-news\/2022\/mar\/21\/14-year-old-girl-dies-after-crash-with-van-while-riding-e-scooter-in-london","apiUrl":"https:\/\/content.guardianapis.com\/uk-news\/2022\/mar\/21\/14-year-old-girl-dies-after-crash-with-van-while-riding-e-scooter-in-london","isHosted":false,"pillarId":"pillar\/news","pillarName":"News"}]}}