{"response":{"status":"ok","userTier":"developer","total":43586,"startIndex":1,"pageSize":10,"currentPage":1,"pages":4359,"orderBy":"relevance","results":[{"id":"music\/2022\/apr\/17\/digga-d-noughty-by-nature-review-utterly-compelling","type":"article","sectionId":"music","sectionName":"Music","webPublicationDate":"2022-04-17T12:00:29Z","webTitle":"Digga D: Noughty By Nature review \u2013 utterly compelling","webUrl":"https:\/\/www.theguardian.com\/music\/2022\/apr\/17\/digga-d-noughty-by-nature-review-utterly-compelling","apiUrl":"https:\/\/content.guardianapis.com\/music\/2022\/apr\/17\/digga-d-noughty-by-nature-review-utterly-compelling","isHosted":false,"pillarId":"pillar\/arts","pillarName":"Arts"},{"id":"science\/2022\/may\/23\/scientists-create-tomatoes-genetically-edited-boost-vitamin-d-levels","type":"article","sectionId":"science","sectionName":"Science","webPublicationDate":"2022-05-23T15:12:13Z","webTitle":"Scientists create tomatoes genetically edited to bolster vitamin D levels","webUrl":"https:\/\/www.theguardian.com\/science\/2022\/may\/23\/scientists-create-tomatoes-genetically-edited-boost-vitamin-d-levels","apiUrl":"https:\/\/content.guardianapis.com\/science\/2022\/may\/23\/scientists-create-tomatoes-genetically-edited-boost-vitamin-d-levels","isHosted":false,"pillarId":"pillar\/news","pillarName":"News"},{"id":"uk-news\/2022\/apr\/26\/funeral-for-d-day-veteran-harry-billinge-held-in-cornwall","type":"article","sectionId":"uk-news","sectionName":"UK news","webPublicationDate":"2022-04-26T13:11:58Z","webTitle":"Funeral for D-day veteran Harry Billinge held in Cornwall","webUrl":"https:\/\/www.theguardian.com\/uk-news\/2022\/apr\/26\/funeral-for-d-day-veteran-harry-billinge-held-in-cornwall","apiUrl":"https:\/\/content.guardianapis.com\/uk-news\/2022\/apr\/26\/funeral-for-d-day-veteran-harry-billinge-held-in-cornwall","isHosted":false,"pillarId":"pillar\/news","pillarName":"News"},{"id":"society\/2022\/jan\/14\/vitamin-d-is-a-winter-essential","type":"article","sectionId":"society","sectionName":"Society","webPublicationDate":"2022-01-14T17:53:45Z","webTitle":"Vitamin D is a winter essential | Letters ","webUrl":"https:\/\/www.theguardian.com\/society\/2022\/jan\/14\/vitamin-d-is-a-winter-essential","apiUrl":"https:\/\/content.guardianapis.com\/society\/2022\/jan\/14\/vitamin-d-is-a-winter-essential","isHosted":false,"pillarId":"pillar\/news","pillarName":"News"},{"id":"uk-news\/2022\/apr\/05\/d-day-veteran-and-fundraiser-harry-billinge-dies-aged-96","type":"article","sectionId":"uk-news","sectionName":"UK news","webPublicationDate":"2022-04-05T16:46:45Z","webTitle":"D-day veteran and fundraiser Harry Billinge dies at 96","webUrl":"https:\/\/www.theguardian.com\/uk-news\/2022\/apr\/05\/d-day-veteran-and-fundraiser-harry-billinge-dies-aged-96","apiUrl":"https:\/\/content.guardianapis.com\/uk-news\/2022\/apr\/05\/d-day-veteran-and-fundraiser-harry-billinge-dies-aged-96","isHosted":false,"pillarId":"pillar\/news","pillarName":"News"},{"id":"society\/2022\/apr\/03\/study-to-decide-whether-vitamin-d-should-be-added-to-food","type":"article","sectionId":"society","sectionName":"Society","webPublicationDate":"2022-04-02T23:01:03Z","webTitle":"Study to decide whether vitamin D should be added to food ","webUrl":"https:\/\/www.theguardian.com\/society\/2022\/apr\/03\/study-to-decide-whether-vitamin-d-should-be-added-to-food","apiUrl":"https:\/\/content.guardianapis.com\/society\/2022\/apr\/03\/study-to-decide-whether-vitamin-d-should-be-added-to-food","isHosted":false,"pillarId":"pillar\/news","pillarName":"News"},{"id":"technology\/2022\/may\/04\/robot-chef-imitates-human-chewing-process-create-tastier-food","type":"article","sectionId":"technology","sectionName":"Technology","webPublicationDate":"2022-05-04T08:40:47Z","webTitle":"R2-D-Chew: robot chef imitates human eating process to create tastier food","webUrl":"https:\/\/www.theguardian.com\/technology\/2022\/may\/04\/robot-chef-imitates-human-chewing-process-create-tastier-food","apiUrl":"https:\/\/content.guardianapis.com\/technology\/2022\/may\/04\/robot-chef-imitates-human-chewing-process-create-tastier-food","isHosted":false,"pillarId":"pillar\/news","pillarName":"News"},{"id":"music\/2021\/dec\/14\/d-double-e-review-grime-originator-unites-the-generations","type":"article","sectionId":"music","sectionName":"Music","webPublicationDate":"2021-12-14T11:44:56Z","webTitle":"D Double E review\u00a0\u2013\u00a0grime originator unites the generations","webUrl":"https:\/\/www.theguardian.com\/music\/2021\/dec\/14\/d-double-e-review-grime-originator-unites-the-generations","apiUrl":"https:\/\/content.guardianapis.com\/music\/2021\/dec\/14\/d-double-e-review-grime-originator-unites-the-generations","isHosted":false,"pillarId":"pillar\/arts","pillarName":"Arts"},{"id":"music\/2022\/apr\/14\/digga-d-noughty-by-nature-review-uk-drill","type":"article","sectionId":"music","sectionName":"Music","webPublicationDate":"2022-04-14T11:07:35Z","webTitle":"Digga D: Noughty By Nature review \u2013 UK drill figurehead has a flow for the ages","webUrl":"https:\/\/www.theguardian.com\/music\/2022\/apr\/14\/digga-d-noughty-by-nature-review-uk-drill","apiUrl":"https:\/\/content.guardianapis.com\/music\/2022\/apr\/14\/digga-d-noughty-by-nature-review-uk-drill","isHosted":false,"pillarId":"pillar\/arts","pillarName":"Arts"},{"id":"business\/2021\/nov\/24\/follow-the-science-astrazeneca-unveils-1bn-rd-centre","type":"article","sectionId":"business","sectionName":"Business","webPublicationDate":"2021-11-24T06:00:37Z","webTitle":"\u2018Follow the science\u2019: AstraZeneca unveils \u00a31bn R&D centre","webUrl":"https:\/\/www.theguardian.com\/business\/2021\/nov\/24\/follow-the-science-astrazeneca-unveils-1bn-rd-centre","apiUrl":"https:\/\/content.guardianapis.com\/business\/2021\/nov\/24\/follow-the-science-astrazeneca-unveils-1bn-rd-centre","isHosted":false,"pillarId":"pillar\/news","pillarName":"News"}]}}