{"response":{"status":"ok","userTier":"developer","total":42342,"startIndex":1,"pageSize":10,"currentPage":1,"pages":4235,"orderBy":"relevance","results":[{"id":"media\/2022\/may\/20\/m-and-c-saatchi-accepts-takeover-by-next-fifteen-rejects-vin-murria-adv","type":"article","sectionId":"media","sectionName":"Media","webPublicationDate":"2022-05-20T08:32:55Z","webTitle":"M&C Saatchi accepts \u00a3310m takeover by Next Fifteen","webUrl":"https:\/\/www.theguardian.com\/media\/2022\/may\/20\/m-and-c-saatchi-accepts-takeover-by-next-fifteen-rejects-vin-murria-adv","apiUrl":"https:\/\/content.guardianapis.com\/media\/2022\/may\/20\/m-and-c-saatchi-accepts-takeover-by-next-fifteen-rejects-vin-murria-adv","isHosted":false,"pillarId":"pillar\/news","pillarName":"News"},{"id":"business\/2022\/may\/17\/ms-chair-brexit-northern-ireland-archie-norman-uk","type":"article","sectionId":"business","sectionName":"Business","webPublicationDate":"2022-05-17T12:44:37Z","webTitle":"M&S chair attacks \u2018pointless\u2019 post-Brexit rules for Northern Ireland","webUrl":"https:\/\/www.theguardian.com\/business\/2022\/may\/17\/ms-chair-brexit-northern-ireland-archie-norman-uk","apiUrl":"https:\/\/content.guardianapis.com\/business\/2022\/may\/17\/ms-chair-brexit-northern-ireland-archie-norman-uk","isHosted":false,"pillarId":"pillar\/news","pillarName":"News"},{"id":"business\/2022\/apr\/22\/bm-boss-simon-arora-to-step-down-from-discount-chain","type":"article","sectionId":"business","sectionName":"Business","webPublicationDate":"2022-04-22T09:50:06Z","webTitle":"Billionaire B&M boss to retire from discount chain after 18 years","webUrl":"https:\/\/www.theguardian.com\/business\/2022\/apr\/22\/bm-boss-simon-arora-to-step-down-from-discount-chain","apiUrl":"https:\/\/content.guardianapis.com\/business\/2022\/apr\/22\/bm-boss-simon-arora-to-step-down-from-discount-chain","isHosted":false,"pillarId":"pillar\/news","pillarName":"News"},{"id":"business\/2022\/jan\/13\/fashion-turnaround-marks-spencer-christmas-style-sales-covid","type":"article","sectionId":"business","sectionName":"Business","webPublicationDate":"2022-01-13T16:22:59Z","webTitle":"Fashion turnaround helps M&S celebrate Christmas in style ","webUrl":"https:\/\/www.theguardian.com\/business\/2022\/jan\/13\/fashion-turnaround-marks-spencer-christmas-style-sales-covid","apiUrl":"https:\/\/content.guardianapis.com\/business\/2022\/jan\/13\/fashion-turnaround-marks-spencer-christmas-style-sales-covid","isHosted":false,"pillarId":"pillar\/news","pillarName":"News"},{"id":"global-development\/2022\/apr\/01\/hm-pledges-to-end-shopfloor-sexual-violence-in-india-after-worker-killed-jeyasre-kathiravel","type":"article","sectionId":"global-development","sectionName":"Global development","webPublicationDate":"2022-04-01T06:45:14Z","webTitle":"H&M pledges to end shopfloor sexual violence in India after worker killed ","webUrl":"https:\/\/www.theguardian.com\/global-development\/2022\/apr\/01\/hm-pledges-to-end-shopfloor-sexual-violence-in-india-after-worker-killed-jeyasre-kathiravel","apiUrl":"https:\/\/content.guardianapis.com\/global-development\/2022\/apr\/01\/hm-pledges-to-end-shopfloor-sexual-violence-in-india-after-worker-killed-jeyasre-kathiravel","isHosted":false,"pillarId":"pillar\/news","pillarName":"News"},{"id":"world\/2022\/apr\/28\/heligoland-the-gentleman-researchers-mystery-german-cold-case-marks-spencer","type":"article","sectionId":"world","sectionName":"World news","webPublicationDate":"2022-04-28T16:36:45Z","webTitle":"M&S tie and metal shoe lasts: new clues in cold case of \u2018the Gentleman\u2019","webUrl":"https:\/\/www.theguardian.com\/world\/2022\/apr\/28\/heligoland-the-gentleman-researchers-mystery-german-cold-case-marks-spencer","apiUrl":"https:\/\/content.guardianapis.com\/world\/2022\/apr\/28\/heligoland-the-gentleman-researchers-mystery-german-cold-case-marks-spencer","isHosted":false,"pillarId":"pillar\/news","pillarName":"News"},{"id":"business\/2022\/apr\/07\/ikea-and-hm-launch-ideas-factory-for-local-designers-and-creatives-in-london","type":"article","sectionId":"business","sectionName":"Business","webPublicationDate":"2022-04-07T05:00:06Z","webTitle":"Ikea and H&M launch \u2018ideas factory\u2019 for local designers and creatives in London","webUrl":"https:\/\/www.theguardian.com\/business\/2022\/apr\/07\/ikea-and-hm-launch-ideas-factory-for-local-designers-and-creatives-in-london","apiUrl":"https:\/\/content.guardianapis.com\/business\/2022\/apr\/07\/ikea-and-hm-launch-ideas-factory-for-local-designers-and-creatives-in-london","isHosted":false,"pillarId":"pillar\/news","pillarName":"News"},{"id":"business\/2022\/jan\/27\/sandwich-maker-greencore-face-rebellion-bonus-plans","type":"article","sectionId":"business","sectionName":"Business","webPublicationDate":"2022-01-27T10:29:04Z","webTitle":"M&S sandwich-maker Greencore could face rebellion over bonus plans","webUrl":"https:\/\/www.theguardian.com\/business\/2022\/jan\/27\/sandwich-maker-greencore-face-rebellion-bonus-plans","apiUrl":"https:\/\/content.guardianapis.com\/business\/2022\/jan\/27\/sandwich-maker-greencore-face-rebellion-bonus-plans","isHosted":false,"pillarId":"pillar\/news","pillarName":"News"},{"id":"crosswords\/crossword-blog\/2021\/sep\/27\/crosswords-for-beginners-meet-the-letter-m","type":"article","sectionId":"crosswords","sectionName":"Crosswords","webPublicationDate":"2021-09-27T10:26:33Z","webTitle":"Crosswords for beginners: meet the letter M","webUrl":"https:\/\/www.theguardian.com\/crosswords\/crossword-blog\/2021\/sep\/27\/crosswords-for-beginners-meet-the-letter-m","apiUrl":"https:\/\/content.guardianapis.com\/crosswords\/crossword-blog\/2021\/sep\/27\/crosswords-for-beginners-meet-the-letter-m","isHosted":false,"pillarId":"pillar\/lifestyle","pillarName":"Lifestyle"},{"id":"commentisfree\/2022\/jan\/26\/mms-have-had-a-progressive-makeover-could-this-be-feminisms-sweetest-victory","type":"article","sectionId":"commentisfree","sectionName":"Opinion","webPublicationDate":"2022-01-26T07:00:03Z","webTitle":"M&M\u2019s have had a \u2018progressive\u2019 makeover \u2013 could this be feminism\u2019s sweetest victory? | Arwa Mahdawi","webUrl":"https:\/\/www.theguardian.com\/commentisfree\/2022\/jan\/26\/mms-have-had-a-progressive-makeover-could-this-be-feminisms-sweetest-victory","apiUrl":"https:\/\/content.guardianapis.com\/commentisfree\/2022\/jan\/26\/mms-have-had-a-progressive-makeover-could-this-be-feminisms-sweetest-victory","isHosted":false,"pillarId":"pillar\/opinion","pillarName":"Opinion"}]}}