{"response":{"status":"ok","userTier":"developer","total":35412,"startIndex":1,"pageSize":10,"currentPage":1,"pages":3542,"orderBy":"relevance","results":[{"id":"uk-news\/2022\/may\/13\/j-balvin-uk-visa-delays-backlog-cancel-ed-sheeran-sessions","type":"article","sectionId":"uk-news","sectionName":"UK news","webPublicationDate":"2022-05-13T16:14:24Z","webTitle":"UK visa delays cause J Balvin to cancel Ed Sheeran sessions","webUrl":"https:\/\/www.theguardian.com\/uk-news\/2022\/may\/13\/j-balvin-uk-visa-delays-backlog-cancel-ed-sheeran-sessions","apiUrl":"https:\/\/content.guardianapis.com\/uk-news\/2022\/may\/13\/j-balvin-uk-visa-delays-backlog-cancel-ed-sheeran-sessions","isHosted":false,"pillarId":"pillar\/news","pillarName":"News"},{"id":"tv-and-radio\/2022\/feb\/01\/walking-dead-actor-moses-j-moseley-dies-aged-31","type":"article","sectionId":"tv-and-radio","sectionName":"Television & radio","webPublicationDate":"2022-02-01T10:20:52Z","webTitle":"Walking Dead actor Moses J Moseley dies aged 31","webUrl":"https:\/\/www.theguardian.com\/tv-and-radio\/2022\/feb\/01\/walking-dead-actor-moses-j-moseley-dies-aged-31","apiUrl":"https:\/\/content.guardianapis.com\/tv-and-radio\/2022\/feb\/01\/walking-dead-actor-moses-j-moseley-dies-aged-31","isHosted":false,"pillarId":"pillar\/arts","pillarName":"Arts"},{"id":"money\/2022\/may\/24\/j-crew-wants-to-charge-me-41-to-return-two-tops","type":"article","sectionId":"money","sectionName":"Money","webPublicationDate":"2022-05-24T06:00:01Z","webTitle":"J Crew wanted to charge me \u00a341 to return two items","webUrl":"https:\/\/www.theguardian.com\/money\/2022\/may\/24\/j-crew-wants-to-charge-me-41-to-return-two-tops","apiUrl":"https:\/\/content.guardianapis.com\/money\/2022\/may\/24\/j-crew-wants-to-charge-me-41-to-return-two-tops","isHosted":false,"pillarId":"pillar\/lifestyle","pillarName":"Lifestyle"},{"id":"music\/2022\/jan\/22\/australian-childrens-group-the-wiggles-top-triple-j-hottest-100","type":"article","sectionId":"music","sectionName":"Music","webPublicationDate":"2022-01-22T10:19:08Z","webTitle":"Australian children\u2019s group the Wiggles top Triple J Hottest 100","webUrl":"https:\/\/www.theguardian.com\/music\/2022\/jan\/22\/australian-childrens-group-the-wiggles-top-triple-j-hottest-100","apiUrl":"https:\/\/content.guardianapis.com\/music\/2022\/jan\/22\/australian-childrens-group-the-wiggles-top-triple-j-hottest-100","isHosted":false,"pillarId":"pillar\/arts","pillarName":"Arts"},{"id":"music\/2022\/feb\/13\/alt-j-the-dream-review","type":"article","sectionId":"music","sectionName":"Music","webPublicationDate":"2022-02-13T15:00:13Z","webTitle":"Alt-J: The Dream review \u2013 a stroll around the curiosity shop","webUrl":"https:\/\/www.theguardian.com\/music\/2022\/feb\/13\/alt-j-the-dream-review","apiUrl":"https:\/\/content.guardianapis.com\/music\/2022\/feb\/13\/alt-j-the-dream-review","isHosted":false,"pillarId":"pillar\/arts","pillarName":"Arts"},{"id":"law\/2022\/jan\/31\/supreme-court-contender-j-michelle-childs-trump-ally-lindsey-graham","type":"article","sectionId":"law","sectionName":"Law","webPublicationDate":"2022-01-31T05:01:40Z","webTitle":"Supreme court contender J Michelle Childs praised by Trump ally Graham","webUrl":"https:\/\/www.theguardian.com\/law\/2022\/jan\/31\/supreme-court-contender-j-michelle-childs-trump-ally-lindsey-graham","apiUrl":"https:\/\/content.guardianapis.com\/law\/2022\/jan\/31\/supreme-court-contender-j-michelle-childs-trump-ally-lindsey-graham","isHosted":false,"pillarId":"pillar\/news","pillarName":"News"},{"id":"us-news\/2021\/jul\/20\/opioid-drug-settlement-johnson-and-johnson-crisis-deal","type":"article","sectionId":"us-news","sectionName":"US news","webPublicationDate":"2021-07-20T13:34:23Z","webTitle":"J&J and others reportedly on verge of $26bn US opioid settlement ","webUrl":"https:\/\/www.theguardian.com\/us-news\/2021\/jul\/20\/opioid-drug-settlement-johnson-and-johnson-crisis-deal","apiUrl":"https:\/\/content.guardianapis.com\/us-news\/2021\/jul\/20\/opioid-drug-settlement-johnson-and-johnson-crisis-deal","isHosted":false,"pillarId":"pillar\/news","pillarName":"News"},{"id":"books\/2022\/jan\/19\/reality-by-david-j-chalmers-review-are-we-living-in-a-simulation","type":"article","sectionId":"books","sectionName":"Books","webPublicationDate":"2022-01-19T07:30:05Z","webTitle":"Reality+ by David J Chalmers review \u2013 are we living in a simulation?","webUrl":"https:\/\/www.theguardian.com\/books\/2022\/jan\/19\/reality-by-david-j-chalmers-review-are-we-living-in-a-simulation","apiUrl":"https:\/\/content.guardianapis.com\/books\/2022\/jan\/19\/reality-by-david-j-chalmers-review-are-we-living-in-a-simulation","isHosted":false,"pillarId":"pillar\/arts","pillarName":"Arts"},{"id":"world\/live\/2021\/may\/26\/coronavirus-live-news-india-variant-found-in-at-least-53-countries-calls-grow-for-new-inquiry-into-covid-origins","type":"liveblog","sectionId":"world","sectionName":"World news","webPublicationDate":"2021-05-26T23:40:10Z","webTitle":"Belgium limits J&J jab to over 41s \u2013 as it happened","webUrl":"https:\/\/www.theguardian.com\/world\/live\/2021\/may\/26\/coronavirus-live-news-india-variant-found-in-at-least-53-countries-calls-grow-for-new-inquiry-into-covid-origins","apiUrl":"https:\/\/content.guardianapis.com\/world\/live\/2021\/may\/26\/coronavirus-live-news-india-variant-found-in-at-least-53-countries-calls-grow-for-new-inquiry-into-covid-origins","isHosted":false,"pillarId":"pillar\/news","pillarName":"News"},{"id":"books\/2022\/feb\/15\/toto-among-the-murderers-by-sally-j-morgan-review-darkness-and-danger-in-the-1970s","type":"article","sectionId":"books","sectionName":"Books","webPublicationDate":"2022-02-15T10:30:05Z","webTitle":"Toto Among the Murderers by Sally J Morgan review \u2013 darkness and danger in the 1970s","webUrl":"https:\/\/www.theguardian.com\/books\/2022\/feb\/15\/toto-among-the-murderers-by-sally-j-morgan-review-darkness-and-danger-in-the-1970s","apiUrl":"https:\/\/content.guardianapis.com\/books\/2022\/feb\/15\/toto-among-the-murderers-by-sally-j-morgan-review-darkness-and-danger-in-the-1970s","isHosted":false,"pillarId":"pillar\/arts","pillarName":"Arts"}]}}