{"response":{"status":"ok","userTier":"developer","total":27140,"startIndex":1,"pageSize":10,"currentPage":1,"pages":2714,"orderBy":"relevance","results":[{"id":"lifeandstyle\/2022\/may\/07\/expression-bushy-eyebrows-emma-f-wright-best-phone-picture","type":"article","sectionId":"lifeandstyle","sectionName":"Life and style","webPublicationDate":"2022-05-07T09:00:28Z","webTitle":"\u2018His bushy eyebrows remind me of Denis Healey\u2019: Emma F Wright\u2019s best phone picture","webUrl":"https:\/\/www.theguardian.com\/lifeandstyle\/2022\/may\/07\/expression-bushy-eyebrows-emma-f-wright-best-phone-picture","apiUrl":"https:\/\/content.guardianapis.com\/lifeandstyle\/2022\/may\/07\/expression-bushy-eyebrows-emma-f-wright-best-phone-picture","isHosted":false,"pillarId":"pillar\/lifestyle","pillarName":"Lifestyle"},{"id":"uk-news\/2022\/mar\/23\/belfast-court-quashes-decision-to-stop-bloody-sunday-prosecution-of-soldier-f","type":"article","sectionId":"uk-news","sectionName":"UK news","webPublicationDate":"2022-03-23T13:20:05Z","webTitle":"Belfast court quashes decision to stop Bloody Sunday prosecution of Soldier F","webUrl":"https:\/\/www.theguardian.com\/uk-news\/2022\/mar\/23\/belfast-court-quashes-decision-to-stop-bloody-sunday-prosecution-of-soldier-f","apiUrl":"https:\/\/content.guardianapis.com\/uk-news\/2022\/mar\/23\/belfast-court-quashes-decision-to-stop-bloody-sunday-prosecution-of-soldier-f","isHosted":false,"pillarId":"pillar\/news","pillarName":"News"},{"id":"uk-news\/2021\/nov\/17\/british-f35-jet-crashes-into-mediterranean","type":"article","sectionId":"uk-news","sectionName":"UK news","webPublicationDate":"2021-11-17T16:02:03Z","webTitle":"British F-35 jet crashes into Mediterranean","webUrl":"https:\/\/www.theguardian.com\/uk-news\/2021\/nov\/17\/british-f35-jet-crashes-into-mediterranean","apiUrl":"https:\/\/content.guardianapis.com\/uk-news\/2021\/nov\/17\/british-f35-jet-crashes-into-mediterranean","isHosted":false,"pillarId":"pillar\/news","pillarName":"News"},{"id":"sport\/2022\/feb\/17\/winter-olympics-beijing-2022-daily-briefing-14","type":"article","sectionId":"sport","sectionName":"Sport","webPublicationDate":"2022-02-17T11:50:20Z","webTitle":"Beijing 2022 Winter Olympics daily briefing: Gisin gold, Smith\u2019s F-bomb","webUrl":"https:\/\/www.theguardian.com\/sport\/2022\/feb\/17\/winter-olympics-beijing-2022-daily-briefing-14","apiUrl":"https:\/\/content.guardianapis.com\/sport\/2022\/feb\/17\/winter-olympics-beijing-2022-daily-briefing-14","isHosted":false,"pillarId":"pillar\/sport","pillarName":"Sport"},{"id":"travel\/2022\/mar\/21\/mouthwatering-marseille-france-culinary-revolution","type":"article","sectionId":"travel","sectionName":"Travel","webPublicationDate":"2022-03-21T07:00:19Z","webTitle":"Mouthwatering Marseille: a taste of France\u2019s f revolution","webUrl":"https:\/\/www.theguardian.com\/travel\/2022\/mar\/21\/mouthwatering-marseille-france-culinary-revolution","apiUrl":"https:\/\/content.guardianapis.com\/travel\/2022\/mar\/21\/mouthwatering-marseille-france-culinary-revolution","isHosted":false,"pillarId":"pillar\/lifestyle","pillarName":"Lifestyle"},{"id":"books\/2022\/feb\/19\/author-joanne-harris-turns-down-us-book-deal-over-censoring-of-f-bomb","type":"article","sectionId":"books","sectionName":"Books","webPublicationDate":"2022-02-19T14:04:53Z","webTitle":"Author Joanne Harris turns down US book deal over censoring of \u2018f-bomb\u2019","webUrl":"https:\/\/www.theguardian.com\/books\/2022\/feb\/19\/author-joanne-harris-turns-down-us-book-deal-over-censoring-of-f-bomb","apiUrl":"https:\/\/content.guardianapis.com\/books\/2022\/feb\/19\/author-joanne-harris-turns-down-us-book-deal-over-censoring-of-f-bomb","isHosted":false,"pillarId":"pillar\/arts","pillarName":"Arts"},{"id":"books\/2022\/jan\/13\/how-civil-wars-start-by-barbara-f-walter-review-sounding-the-alarm","type":"article","sectionId":"books","sectionName":"Books","webPublicationDate":"2022-01-13T07:30:11Z","webTitle":"How Civil Wars Start by Barbara F Walter review \u2013 sounding the alarm","webUrl":"https:\/\/www.theguardian.com\/books\/2022\/jan\/13\/how-civil-wars-start-by-barbara-f-walter-review-sounding-the-alarm","apiUrl":"https:\/\/content.guardianapis.com\/books\/2022\/jan\/13\/how-civil-wars-start-by-barbara-f-walter-review-sounding-the-alarm","isHosted":false,"pillarId":"pillar\/arts","pillarName":"Arts"},{"id":"world\/2022\/jan\/11\/taiwan-f-16-jet-crashes-sea-fleet-suspended","type":"article","sectionId":"world","sectionName":"World news","webPublicationDate":"2022-01-11T14:53:50Z","webTitle":"Taiwan suspends F-16 fleet combat training after jet crashes into sea","webUrl":"https:\/\/www.theguardian.com\/world\/2022\/jan\/11\/taiwan-f-16-jet-crashes-sea-fleet-suspended","apiUrl":"https:\/\/content.guardianapis.com\/world\/2022\/jan\/11\/taiwan-f-16-jet-crashes-sea-fleet-suspended","isHosted":false,"pillarId":"pillar\/news","pillarName":"News"},{"id":"us-news\/2021\/jun\/07\/f-lee-bailey-obituary","type":"article","sectionId":"us-news","sectionName":"US news","webPublicationDate":"2021-06-07T14:37:45Z","webTitle":"F Lee Bailey obituary","webUrl":"https:\/\/www.theguardian.com\/us-news\/2021\/jun\/07\/f-lee-bailey-obituary","apiUrl":"https:\/\/content.guardianapis.com\/us-news\/2021\/jun\/07\/f-lee-bailey-obituary","isHosted":false,"pillarId":"pillar\/news","pillarName":"News"},{"id":"books\/2022\/feb\/07\/sexual-revolution-by-laurie-penny-review-playing-fast-and-loose-with-the-f-word","type":"article","sectionId":"books","sectionName":"Books","webPublicationDate":"2022-02-07T07:00:05Z","webTitle":"Sexual Revolution by Laurie Penny review \u2013 playing fast and loose with the f-word","webUrl":"https:\/\/www.theguardian.com\/books\/2022\/feb\/07\/sexual-revolution-by-laurie-penny-review-playing-fast-and-loose-with-the-f-word","apiUrl":"https:\/\/content.guardianapis.com\/books\/2022\/feb\/07\/sexual-revolution-by-laurie-penny-review-playing-fast-and-loose-with-the-f-word","isHosted":false,"pillarId":"pillar\/arts","pillarName":"Arts"}]}}