{"response":{"status":"ok","userTier":"developer","total":23724,"startIndex":1,"pageSize":10,"currentPage":1,"pages":2373,"orderBy":"relevance","results":[{"id":"music\/2021\/oct\/08\/richard-h-kirk-obituary","type":"article","sectionId":"music","sectionName":"Music","webPublicationDate":"2021-10-08T16:21:00Z","webTitle":"Richard H Kirk obituary","webUrl":"https:\/\/www.theguardian.com\/music\/2021\/oct\/08\/richard-h-kirk-obituary","apiUrl":"https:\/\/content.guardianapis.com\/music\/2021\/oct\/08\/richard-h-kirk-obituary","isHosted":false,"pillarId":"pillar\/arts","pillarName":"Arts"},{"id":"global-development\/2022\/apr\/01\/hm-pledges-to-end-shopfloor-sexual-violence-in-india-after-worker-killed-jeyasre-kathiravel","type":"article","sectionId":"global-development","sectionName":"Global development","webPublicationDate":"2022-04-01T06:45:14Z","webTitle":"H&M pledges to end shopfloor sexual violence in India after worker killed ","webUrl":"https:\/\/www.theguardian.com\/global-development\/2022\/apr\/01\/hm-pledges-to-end-shopfloor-sexual-violence-in-india-after-worker-killed-jeyasre-kathiravel","apiUrl":"https:\/\/content.guardianapis.com\/global-development\/2022\/apr\/01\/hm-pledges-to-end-shopfloor-sexual-violence-in-india-after-worker-killed-jeyasre-kathiravel","isHosted":false,"pillarId":"pillar\/news","pillarName":"News"},{"id":"business\/2022\/apr\/07\/ikea-and-hm-launch-ideas-factory-for-local-designers-and-creatives-in-london","type":"article","sectionId":"business","sectionName":"Business","webPublicationDate":"2022-04-07T05:00:06Z","webTitle":"Ikea and H&M launch \u2018ideas factory\u2019 for local designers and creatives in London","webUrl":"https:\/\/www.theguardian.com\/business\/2022\/apr\/07\/ikea-and-hm-launch-ideas-factory-for-local-designers-and-creatives-in-london","apiUrl":"https:\/\/content.guardianapis.com\/business\/2022\/apr\/07\/ikea-and-hm-launch-ideas-factory-for-local-designers-and-creatives-in-london","isHosted":false,"pillarId":"pillar\/news","pillarName":"News"},{"id":"books\/2022\/feb\/27\/in-brief-good-intentions-tickets-for-the-ark-crying-in-h-mart-review","type":"article","sectionId":"books","sectionName":"Books","webPublicationDate":"2022-02-27T16:00:16Z","webTitle":"In brief: Good Intentions, Tickets for the Ark, Crying in H Mart \u2013 review","webUrl":"https:\/\/www.theguardian.com\/books\/2022\/feb\/27\/in-brief-good-intentions-tickets-for-the-ark-crying-in-h-mart-review","apiUrl":"https:\/\/content.guardianapis.com\/books\/2022\/feb\/27\/in-brief-good-intentions-tickets-for-the-ark-crying-in-h-mart-review","isHosted":false,"pillarId":"pillar\/arts","pillarName":"Arts"},{"id":"music\/2021\/sep\/21\/cabaret-voltaire-richard-h-kirk-dies-aged-65","type":"article","sectionId":"music","sectionName":"Music","webPublicationDate":"2021-09-21T14:35:19Z","webTitle":"Richard H Kirk, founding member of Cabaret Voltaire, dies aged 65","webUrl":"https:\/\/www.theguardian.com\/music\/2021\/sep\/21\/cabaret-voltaire-richard-h-kirk-dies-aged-65","apiUrl":"https:\/\/content.guardianapis.com\/music\/2021\/sep\/21\/cabaret-voltaire-richard-h-kirk-dies-aged-65","isHosted":false,"pillarId":"pillar\/arts","pillarName":"Arts"},{"id":"music\/2021\/sep\/21\/richard-h-kirk-was-prolific-hungry-angry-and-funky-to-the-end","type":"article","sectionId":"music","sectionName":"Music","webPublicationDate":"2021-09-21T17:07:13Z","webTitle":"Richard H Kirk was prolific, hungry, angry and funky to the end","webUrl":"https:\/\/www.theguardian.com\/music\/2021\/sep\/21\/richard-h-kirk-was-prolific-hungry-angry-and-funky-to-the-end","apiUrl":"https:\/\/content.guardianapis.com\/music\/2021\/sep\/21\/richard-h-kirk-was-prolific-hungry-angry-and-funky-to-the-end","isHosted":false,"pillarId":"pillar\/arts","pillarName":"Arts"},{"id":"commentisfree\/2022\/mar\/16\/donald-trump-criminal-charges-january-6-capitol-attack","type":"article","sectionId":"commentisfree","sectionName":"Opinion","webPublicationDate":"2022-03-16T10:22:28Z","webTitle":"The evidence is clear: it\u2019s time to prosecute Donald Trump | Laurence H Tribe and Dennis Aftergut","webUrl":"https:\/\/www.theguardian.com\/commentisfree\/2022\/mar\/16\/donald-trump-criminal-charges-january-6-capitol-attack","apiUrl":"https:\/\/content.guardianapis.com\/commentisfree\/2022\/mar\/16\/donald-trump-criminal-charges-january-6-capitol-attack","isHosted":false,"pillarId":"pillar\/opinion","pillarName":"Opinion"},{"id":"global-development\/2021\/jul\/02\/wage-theft-in-primark-nike-and-hm-supply-chain-report","type":"article","sectionId":"global-development","sectionName":"Global development","webPublicationDate":"2021-07-02T15:47:20Z","webTitle":"\u2018Wage theft\u2019 in Primark, Nike and H&M supply chain \u2013 report","webUrl":"https:\/\/www.theguardian.com\/global-development\/2021\/jul\/02\/wage-theft-in-primark-nike-and-hm-supply-chain-report","apiUrl":"https:\/\/content.guardianapis.com\/global-development\/2021\/jul\/02\/wage-theft-in-primark-nike-and-hm-supply-chain-report","isHosted":false,"pillarId":"pillar\/news","pillarName":"News"},{"id":"books\/2021\/aug\/10\/crying-in-h-mart-by-michelle-zauner-review-truth-of-a-modest-sceptic","type":"article","sectionId":"books","sectionName":"Books","webPublicationDate":"2021-08-10T09:30:15Z","webTitle":"Crying in H Mart by Michelle Zauner review \u2013 truth of a modest sceptic ","webUrl":"https:\/\/www.theguardian.com\/books\/2021\/aug\/10\/crying-in-h-mart-by-michelle-zauner-review-truth-of-a-modest-sceptic","apiUrl":"https:\/\/content.guardianapis.com\/books\/2021\/aug\/10\/crying-in-h-mart-by-michelle-zauner-review-truth-of-a-modest-sceptic","isHosted":false,"pillarId":"pillar\/arts","pillarName":"Arts"},{"id":"commentisfree\/2022\/may\/23\/roe-v-wade-abortion-laurence-tribe","type":"article","sectionId":"commentisfree","sectionName":"Opinion","webPublicationDate":"2022-05-23T10:14:53Z","webTitle":"Don\u2019t believe those who say ending Roe v Wade will leave society largely intact | Laurence H Tribe","webUrl":"https:\/\/www.theguardian.com\/commentisfree\/2022\/may\/23\/roe-v-wade-abortion-laurence-tribe","apiUrl":"https:\/\/content.guardianapis.com\/commentisfree\/2022\/may\/23\/roe-v-wade-abortion-laurence-tribe","isHosted":false,"pillarId":"pillar\/opinion","pillarName":"Opinion"}]}}