{"response":{"status":"ok","userTier":"developer","total":26690,"startIndex":1,"pageSize":10,"currentPage":1,"pages":2669,"orderBy":"relevance","results":[{"id":"science\/2022\/jan\/06\/edward-o-wilson-obituary","type":"article","sectionId":"science","sectionName":"Science","webPublicationDate":"2022-01-06T13:50:13Z","webTitle":"Edward O Wilson obituary","webUrl":"https:\/\/www.theguardian.com\/science\/2022\/jan\/06\/edward-o-wilson-obituary","apiUrl":"https:\/\/content.guardianapis.com\/science\/2022\/jan\/06\/edward-o-wilson-obituary","isHosted":false,"pillarId":"pillar\/news","pillarName":"News"},{"id":"business\/2022\/mar\/17\/p-and-o-ferries-shutout-your-consumer-questions-answered","type":"article","sectionId":"business","sectionName":"Business","webPublicationDate":"2022-03-17T20:03:40Z","webTitle":"P&O Ferries suspension: your consumer questions answered","webUrl":"https:\/\/www.theguardian.com\/business\/2022\/mar\/17\/p-and-o-ferries-shutout-your-consumer-questions-answered","apiUrl":"https:\/\/content.guardianapis.com\/business\/2022\/mar\/17\/p-and-o-ferries-shutout-your-consumer-questions-answered","isHosted":false,"pillarId":"pillar\/news","pillarName":"News"},{"id":"business\/2022\/apr\/13\/p-and-o-ferries-another-vessel-detained-after-deficiencies-identified","type":"article","sectionId":"business","sectionName":"Business","webPublicationDate":"2022-04-13T08:42:28Z","webTitle":"P&O Ferries: another vessel detained after \u2018deficiencies\u2019 identified","webUrl":"https:\/\/www.theguardian.com\/business\/2022\/apr\/13\/p-and-o-ferries-another-vessel-detained-after-deficiencies-identified","apiUrl":"https:\/\/content.guardianapis.com\/business\/2022\/apr\/13\/p-and-o-ferries-another-vessel-detained-after-deficiencies-identified","isHosted":false,"pillarId":"pillar\/news","pillarName":"News"},{"id":"business\/2022\/mar\/18\/dp-world-p-and-o-ownership-dubai","type":"article","sectionId":"business","sectionName":"Business","webPublicationDate":"2022-03-18T18:22:21Z","webTitle":"DP World\u2019s controversial history of P&O ownership","webUrl":"https:\/\/www.theguardian.com\/business\/2022\/mar\/18\/dp-world-p-and-o-ownership-dubai","apiUrl":"https:\/\/content.guardianapis.com\/business\/2022\/mar\/18\/dp-world-p-and-o-ownership-dubai","isHosted":false,"pillarId":"pillar\/news","pillarName":"News"},{"id":"theobserver\/commentisfree\/2022\/apr\/03\/observer-letters-leesson-to-p-and-o-in-ethical-leadership","type":"article","sectionId":"theobserver","sectionName":"From the Observer","webPublicationDate":"2022-04-03T05:00:10Z","webTitle":"A lesson to P&O in ethical leadership | Letters","webUrl":"https:\/\/www.theguardian.com\/theobserver\/commentisfree\/2022\/apr\/03\/observer-letters-leesson-to-p-and-o-in-ethical-leadership","apiUrl":"https:\/\/content.guardianapis.com\/theobserver\/commentisfree\/2022\/apr\/03\/observer-letters-leesson-to-p-and-o-in-ethical-leadership","isHosted":false,"pillarId":"pillar\/news","pillarName":"News"},{"id":"business\/2022\/apr\/01\/po-ferries-criminal-investigations-launched-after-staff-sackings","type":"article","sectionId":"business","sectionName":"Business","webPublicationDate":"2022-04-01T15:56:51Z","webTitle":"P&O Ferries: criminal investigation launched after staff sackings","webUrl":"https:\/\/www.theguardian.com\/business\/2022\/apr\/01\/po-ferries-criminal-investigations-launched-after-staff-sackings","apiUrl":"https:\/\/content.guardianapis.com\/business\/2022\/apr\/01\/po-ferries-criminal-investigations-launched-after-staff-sackings","isHosted":false,"pillarId":"pillar\/news","pillarName":"News"},{"id":"business\/2022\/apr\/14\/po-ferries-suspends-passenger-services-channel-easter-dover-calais-travel-uk-bank-holiday-weekend","type":"article","sectionId":"business","sectionName":"Business","webPublicationDate":"2022-04-14T08:34:13Z","webTitle":"P&O Ferries suspends passenger services across Channel over Easter","webUrl":"https:\/\/www.theguardian.com\/business\/2022\/apr\/14\/po-ferries-suspends-passenger-services-channel-easter-dover-calais-travel-uk-bank-holiday-weekend","apiUrl":"https:\/\/content.guardianapis.com\/business\/2022\/apr\/14\/po-ferries-suspends-passenger-services-channel-easter-dover-calais-travel-uk-bank-holiday-weekend","isHosted":false,"pillarId":"pillar\/news","pillarName":"News"},{"id":"business\/2022\/mar\/19\/ministers-told-in-advance-about-po-mass-sackings","type":"article","sectionId":"business","sectionName":"Business","webPublicationDate":"2022-03-19T23:47:35Z","webTitle":"Ministers \u2018told in advance about P&O mass sackings\u2019","webUrl":"https:\/\/www.theguardian.com\/business\/2022\/mar\/19\/ministers-told-in-advance-about-po-mass-sackings","apiUrl":"https:\/\/content.guardianapis.com\/business\/2022\/mar\/19\/ministers-told-in-advance-about-po-mass-sackings","isHosted":false,"pillarId":"pillar\/news","pillarName":"News"},{"id":"business\/2022\/may\/22\/tuc-chief-calls-for-directors-of-p-and-o-ferries-to-be-disqualified-insolvency-service","type":"article","sectionId":"business","sectionName":"Business","webPublicationDate":"2022-05-22T11:00:47Z","webTitle":"TUC chief calls for directors of P&O Ferries to be disqualified","webUrl":"https:\/\/www.theguardian.com\/business\/2022\/may\/22\/tuc-chief-calls-for-directors-of-p-and-o-ferries-to-be-disqualified-insolvency-service","apiUrl":"https:\/\/content.guardianapis.com\/business\/2022\/may\/22\/tuc-chief-calls-for-directors-of-p-and-o-ferries-to-be-disqualified-insolvency-service","isHosted":false,"pillarId":"pillar\/news","pillarName":"News"},{"id":"business\/2022\/mar\/22\/po-ferries-could-face-prosecution-over-sackings-minister-says","type":"article","sectionId":"business","sectionName":"Business","webPublicationDate":"2022-03-22T09:48:23Z","webTitle":"P&O Ferries could face prosecution over sackings, minister says","webUrl":"https:\/\/www.theguardian.com\/business\/2022\/mar\/22\/po-ferries-could-face-prosecution-over-sackings-minister-says","apiUrl":"https:\/\/content.guardianapis.com\/business\/2022\/mar\/22\/po-ferries-could-face-prosecution-over-sackings-minister-says","isHosted":false,"pillarId":"pillar\/news","pillarName":"News"}]}}