{"response":{"status":"ok","userTier":"developer","total":78824,"startIndex":1,"pageSize":10,"currentPage":1,"pages":7883,"orderBy":"relevance","results":[{"id":"sport\/live\/2022\/apr\/29\/yorkshire-v-kent-hampshire-v-lancashire-county-cricket-live","type":"liveblog","sectionId":"sport","sectionName":"Sport","webPublicationDate":"2022-04-29T18:48:41Z","webTitle":"Yorkshire v Kent, Hampshire v Lancashire: county cricket \u2013 as it happened","webUrl":"https:\/\/www.theguardian.com\/sport\/live\/2022\/apr\/29\/yorkshire-v-kent-hampshire-v-lancashire-county-cricket-live","apiUrl":"https:\/\/content.guardianapis.com\/sport\/live\/2022\/apr\/29\/yorkshire-v-kent-hampshire-v-lancashire-county-cricket-live","isHosted":false,"pillarId":"pillar\/sport","pillarName":"Sport"},{"id":"football\/2022\/may\/20\/liverpool-wolves-match-preview-premier-league","type":"article","sectionId":"football","sectionName":"Football","webPublicationDate":"2022-05-20T11:25:14Z","webTitle":"Liverpool v Wolves: match preview","webUrl":"https:\/\/www.theguardian.com\/football\/2022\/may\/20\/liverpool-wolves-match-preview-premier-league","apiUrl":"https:\/\/content.guardianapis.com\/football\/2022\/may\/20\/liverpool-wolves-match-preview-premier-league","isHosted":false,"pillarId":"pillar\/sport","pillarName":"Sport"},{"id":"football\/2022\/may\/20\/tottenham-norwich-match-preview-premier-league","type":"article","sectionId":"football","sectionName":"Football","webPublicationDate":"2022-05-20T15:44:34Z","webTitle":"Norwich v Tottenham: match preview","webUrl":"https:\/\/www.theguardian.com\/football\/2022\/may\/20\/tottenham-norwich-match-preview-premier-league","apiUrl":"https:\/\/content.guardianapis.com\/football\/2022\/may\/20\/tottenham-norwich-match-preview-premier-league","isHosted":false,"pillarId":"pillar\/sport","pillarName":"Sport"},{"id":"football\/2022\/may\/20\/brentford-leeds-match-preview-match-preview","type":"article","sectionId":"football","sectionName":"Football","webPublicationDate":"2022-05-20T15:27:58Z","webTitle":"Brentford v Leeds: match preview","webUrl":"https:\/\/www.theguardian.com\/football\/2022\/may\/20\/brentford-leeds-match-preview-match-preview","apiUrl":"https:\/\/content.guardianapis.com\/football\/2022\/may\/20\/brentford-leeds-match-preview-match-preview","isHosted":false,"pillarId":"pillar\/sport","pillarName":"Sport"},{"id":"sport\/live\/2022\/may\/21\/lancashire-v-essex-yorkshire-v-warwickshire-and-more-county-cricket-live","type":"liveblog","sectionId":"sport","sectionName":"Sport","webPublicationDate":"2022-05-21T19:18:43Z","webTitle":"Lancashire v Essex, Yorkshire v Warwickshire and more: county cricket \u2013 as it happened","webUrl":"https:\/\/www.theguardian.com\/sport\/live\/2022\/may\/21\/lancashire-v-essex-yorkshire-v-warwickshire-and-more-county-cricket-live","apiUrl":"https:\/\/content.guardianapis.com\/sport\/live\/2022\/may\/21\/lancashire-v-essex-yorkshire-v-warwickshire-and-more-county-cricket-live","isHosted":false,"pillarId":"pillar\/sport","pillarName":"Sport"},{"id":"football\/2022\/may\/14\/everton-brentford-match-preview-premier-league","type":"article","sectionId":"football","sectionName":"Football","webPublicationDate":"2022-05-14T08:00:05Z","webTitle":"Everton v Brentford: match preview","webUrl":"https:\/\/www.theguardian.com\/football\/2022\/may\/14\/everton-brentford-match-preview-premier-league","apiUrl":"https:\/\/content.guardianapis.com\/football\/2022\/may\/14\/everton-brentford-match-preview-premier-league","isHosted":false,"pillarId":"pillar\/sport","pillarName":"Sport"},{"id":"football\/2022\/may\/14\/newcastle-arsenal-match-preview-premier-league","type":"article","sectionId":"football","sectionName":"Football","webPublicationDate":"2022-05-14T08:00:04Z","webTitle":"Newcastle v Arsenal: match preview","webUrl":"https:\/\/www.theguardian.com\/football\/2022\/may\/14\/newcastle-arsenal-match-preview-premier-league","apiUrl":"https:\/\/content.guardianapis.com\/football\/2022\/may\/14\/newcastle-arsenal-match-preview-premier-league","isHosted":false,"pillarId":"pillar\/sport","pillarName":"Sport"},{"id":"football\/2022\/may\/14\/leeds-brighton-match-preview-premier-league","type":"article","sectionId":"football","sectionName":"Football","webPublicationDate":"2022-05-14T08:00:04Z","webTitle":"Leeds v Brighton: match preview","webUrl":"https:\/\/www.theguardian.com\/football\/2022\/may\/14\/leeds-brighton-match-preview-premier-league","apiUrl":"https:\/\/content.guardianapis.com\/football\/2022\/may\/14\/leeds-brighton-match-preview-premier-league","isHosted":false,"pillarId":"pillar\/sport","pillarName":"Sport"},{"id":"football\/2022\/may\/20\/chelsea-watford-match-preview-premier-league","type":"article","sectionId":"football","sectionName":"Football","webPublicationDate":"2022-05-20T14:10:53Z","webTitle":"Chelsea v Watford: match preview","webUrl":"https:\/\/www.theguardian.com\/football\/2022\/may\/20\/chelsea-watford-match-preview-premier-league","apiUrl":"https:\/\/content.guardianapis.com\/football\/2022\/may\/20\/chelsea-watford-match-preview-premier-league","isHosted":false,"pillarId":"pillar\/sport","pillarName":"Sport"},{"id":"football\/2022\/may\/20\/burnley-newcastle-match-preview-premier-league","type":"article","sectionId":"football","sectionName":"Football","webPublicationDate":"2022-05-20T11:12:01Z","webTitle":"Burnley v Newcastle: match preview","webUrl":"https:\/\/www.theguardian.com\/football\/2022\/may\/20\/burnley-newcastle-match-preview-premier-league","apiUrl":"https:\/\/content.guardianapis.com\/football\/2022\/may\/20\/burnley-newcastle-match-preview-premier-league","isHosted":false,"pillarId":"pillar\/sport","pillarName":"Sport"}]}}