{"response":{"status":"ok","userTier":"developer","total":36493,"startIndex":1,"pageSize":10,"currentPage":1,"pages":3650,"orderBy":"relevance","results":[{"id":"stage\/2022\/may\/17\/a-strange-loop-review-michael-r-jacksons-thrilling-broadway-triumph","type":"article","sectionId":"stage","sectionName":"Stage","webPublicationDate":"2022-05-17T18:03:15Z","webTitle":"A Strange Loop review \u2013 Michael R Jackson\u2019s thrilling Broadway triumph","webUrl":"https:\/\/www.theguardian.com\/stage\/2022\/may\/17\/a-strange-loop-review-michael-r-jacksons-thrilling-broadway-triumph","apiUrl":"https:\/\/content.guardianapis.com\/stage\/2022\/may\/17\/a-strange-loop-review-michael-r-jacksons-thrilling-broadway-triumph","isHosted":false,"pillarId":"pillar\/arts","pillarName":"Arts"},{"id":"music\/2022\/jan\/11\/james-mtume-hits-recordings-jazz-funk","type":"article","sectionId":"music","sectionName":"Music","webPublicationDate":"2022-01-11T15:03:38Z","webTitle":"Jazz, R&B and \u2018sophistifunk\u2019: James Mtume\u2019s greatest recordings","webUrl":"https:\/\/www.theguardian.com\/music\/2022\/jan\/11\/james-mtume-hits-recordings-jazz-funk","apiUrl":"https:\/\/content.guardianapis.com\/music\/2022\/jan\/11\/james-mtume-hits-recordings-jazz-funk","isHosted":false,"pillarId":"pillar\/arts","pillarName":"Arts"},{"id":"crosswords\/crossword-blog\/2021\/nov\/08\/crossword-blog-anne-r-bradford","type":"article","sectionId":"crosswords","sectionName":"Crosswords","webPublicationDate":"2021-11-08T10:21:23Z","webTitle":"Crossword blog: Anne R Bradford \u2013 in memoriam","webUrl":"https:\/\/www.theguardian.com\/crosswords\/crossword-blog\/2021\/nov\/08\/crossword-blog-anne-r-bradford","apiUrl":"https:\/\/content.guardianapis.com\/crosswords\/crossword-blog\/2021\/nov\/08\/crossword-blog-anne-r-bradford","isHosted":false,"pillarId":"pillar\/lifestyle","pillarName":"Lifestyle"},{"id":"business\/2021\/nov\/24\/follow-the-science-astrazeneca-unveils-1bn-rd-centre","type":"article","sectionId":"business","sectionName":"Business","webPublicationDate":"2021-11-24T06:00:37Z","webTitle":"\u2018Follow the science\u2019: AstraZeneca unveils \u00a31bn R&D centre","webUrl":"https:\/\/www.theguardian.com\/business\/2021\/nov\/24\/follow-the-science-astrazeneca-unveils-1bn-rd-centre","apiUrl":"https:\/\/content.guardianapis.com\/business\/2021\/nov\/24\/follow-the-science-astrazeneca-unveils-1bn-rd-centre","isHosted":false,"pillarId":"pillar\/news","pillarName":"News"},{"id":"music\/2022\/mar\/14\/timmy-thomas-r-and-b-singer-of-why-cant-we-live-together-dies-aged-77","type":"article","sectionId":"music","sectionName":"Music","webPublicationDate":"2022-03-14T16:36:33Z","webTitle":"Timmy Thomas, R&B singer of Why Can\u2019t We Live Together, dies aged 77","webUrl":"https:\/\/www.theguardian.com\/music\/2022\/mar\/14\/timmy-thomas-r-and-b-singer-of-why-cant-we-live-together-dies-aged-77","apiUrl":"https:\/\/content.guardianapis.com\/music\/2022\/mar\/14\/timmy-thomas-r-and-b-singer-of-why-cant-we-live-together-dies-aged-77","isHosted":false,"pillarId":"pillar\/arts","pillarName":"Arts"},{"id":"music\/2022\/jan\/04\/omarion-rb-singer-not-omicron-variant","type":"article","sectionId":"music","sectionName":"Music","webPublicationDate":"2022-01-04T14:57:21Z","webTitle":"Omarion is an R&B singer, not a Covid-19 variant","webUrl":"https:\/\/www.theguardian.com\/music\/2022\/jan\/04\/omarion-rb-singer-not-omicron-variant","apiUrl":"https:\/\/content.guardianapis.com\/music\/2022\/jan\/04\/omarion-rb-singer-not-omicron-variant","isHosted":false,"pillarId":"pillar\/arts","pillarName":"Arts"},{"id":"books\/2022\/apr\/06\/the-fifties-an-underground-history-by-james-r-gaines-review-a-different-view-of-the-decade","type":"article","sectionId":"books","sectionName":"Books","webPublicationDate":"2022-04-06T08:00:19Z","webTitle":"The Fifties: An Underground History by James R Gaines review \u2013 a different view of the decade","webUrl":"https:\/\/www.theguardian.com\/books\/2022\/apr\/06\/the-fifties-an-underground-history-by-james-r-gaines-review-a-different-view-of-the-decade","apiUrl":"https:\/\/content.guardianapis.com\/books\/2022\/apr\/06\/the-fifties-an-underground-history-by-james-r-gaines-review-a-different-view-of-the-decade","isHosted":false,"pillarId":"pillar\/arts","pillarName":"Arts"},{"id":"us-news\/2022\/may\/04\/everyone-failed-these-young-black-girls-journalist-jim-derogatis-on-his-decades-long-battle-to-expose-r-kelly","type":"article","sectionId":"us-news","sectionName":"US news","webPublicationDate":"2022-05-04T05:00:09Z","webTitle":"\u2018Everyone failed these young, Black girls\u2019: journalist Jim DeRogatis on his decades-long battle to expose R Kelly","webUrl":"https:\/\/www.theguardian.com\/us-news\/2022\/may\/04\/everyone-failed-these-young-black-girls-journalist-jim-derogatis-on-his-decades-long-battle-to-expose-r-kelly","apiUrl":"https:\/\/content.guardianapis.com\/us-news\/2022\/may\/04\/everyone-failed-these-young-black-girls-journalist-jim-derogatis-on-his-decades-long-battle-to-expose-r-kelly","isHosted":false,"pillarId":"pillar\/news","pillarName":"News"},{"id":"music\/2021\/dec\/01\/rb-star-trey-songz-investigated-over-sexual-assault-allegation","type":"article","sectionId":"music","sectionName":"Music","webPublicationDate":"2021-12-01T13:55:30Z","webTitle":"R&B star Trey Songz investigated over sexual assault allegation","webUrl":"https:\/\/www.theguardian.com\/music\/2021\/dec\/01\/rb-star-trey-songz-investigated-over-sexual-assault-allegation","apiUrl":"https:\/\/content.guardianapis.com\/music\/2021\/dec\/01\/rb-star-trey-songz-investigated-over-sexual-assault-allegation","isHosted":false,"pillarId":"pillar\/arts","pillarName":"Arts"},{"id":"music\/2021\/nov\/30\/ari-lennox-arrested-in-amsterdam-alleges-racial-profiling","type":"article","sectionId":"music","sectionName":"Music","webPublicationDate":"2021-11-30T09:28:47Z","webTitle":"R&B star Ari Lennox arrested in Amsterdam, alleges racial profiling","webUrl":"https:\/\/www.theguardian.com\/music\/2021\/nov\/30\/ari-lennox-arrested-in-amsterdam-alleges-racial-profiling","apiUrl":"https:\/\/content.guardianapis.com\/music\/2021\/nov\/30\/ari-lennox-arrested-in-amsterdam-alleges-racial-profiling","isHosted":false,"pillarId":"pillar\/arts","pillarName":"Arts"}]}}