{"response":{"status":"ok","userTier":"developer","total":11858,"startIndex":1,"pageSize":10,"currentPage":1,"pages":1186,"orderBy":"relevance","results":[{"id":"sport\/2022\/mar\/08\/gymnast-ivan-kuliak-says-he-would-show-support-for-russia-again","type":"article","sectionId":"sport","sectionName":"Sport","webPublicationDate":"2022-03-08T16:56:11Z","webTitle":"Unrepentant gymnast Ivan Kuliak would show \u2018Z\u2019 insignia for Russia again","webUrl":"https:\/\/www.theguardian.com\/sport\/2022\/mar\/08\/gymnast-ivan-kuliak-says-he-would-show-support-for-russia-again","apiUrl":"https:\/\/content.guardianapis.com\/sport\/2022\/mar\/08\/gymnast-ivan-kuliak-says-he-would-show-support-for-russia-again","isHosted":false,"pillarId":"pillar\/sport","pillarName":"Sport"},{"id":"media\/2022\/apr\/23\/z-symbols-pro-war-memes-ukrainian-flags-russian-influencers-ukraine","type":"article","sectionId":"media","sectionName":"Media","webPublicationDate":"2022-04-23T08:00:49Z","webTitle":"Pro-war memes, Z symbols and blue and yellow flags: Russian influencers at war","webUrl":"https:\/\/www.theguardian.com\/media\/2022\/apr\/23\/z-symbols-pro-war-memes-ukrainian-flags-russian-influencers-ukraine","apiUrl":"https:\/\/content.guardianapis.com\/media\/2022\/apr\/23\/z-symbols-pro-war-memes-ukrainian-flags-russian-influencers-ukraine","isHosted":false,"pillarId":"pillar\/news","pillarName":"News"},{"id":"world\/2022\/mar\/07\/why-has-the-letter-z-become-the-symbol-of-war-for-russia","type":"article","sectionId":"world","sectionName":"World news","webPublicationDate":"2022-03-07T16:50:58Z","webTitle":"Why has the letter Z become the symbol of war for Russia?","webUrl":"https:\/\/www.theguardian.com\/world\/2022\/mar\/07\/why-has-the-letter-z-become-the-symbol-of-war-for-russia","apiUrl":"https:\/\/content.guardianapis.com\/world\/2022\/mar\/07\/why-has-the-letter-z-become-the-symbol-of-war-for-russia","isHosted":false,"pillarId":"pillar\/news","pillarName":"News"},{"id":"fashion\/costume-and-culture\/2022\/jan\/31\/pamcore-how-pamela-anderson-became-an-unlikely-gen-z-fashion-icon","type":"article","sectionId":"fashion","sectionName":"Fashion","webPublicationDate":"2022-01-31T13:22:33Z","webTitle":"Pamcore! How Pamela Anderson became an unlikely Gen Z fashion icon","webUrl":"https:\/\/www.theguardian.com\/fashion\/costume-and-culture\/2022\/jan\/31\/pamcore-how-pamela-anderson-became-an-unlikely-gen-z-fashion-icon","apiUrl":"https:\/\/content.guardianapis.com\/fashion\/costume-and-culture\/2022\/jan\/31\/pamcore-how-pamela-anderson-became-an-unlikely-gen-z-fashion-icon","isHosted":false,"pillarId":"pillar\/lifestyle","pillarName":"Lifestyle"},{"id":"commentisfree\/2022\/jan\/27\/gen-z-workers-snowflakes-bad-treatment-bad-pay","type":"article","sectionId":"commentisfree","sectionName":"Opinion","webPublicationDate":"2022-01-27T10:00:27Z","webTitle":"Gen Z workers should be proud of being \u2018snowflakes\u2019 rather than martyrs | Hannah Jewell","webUrl":"https:\/\/www.theguardian.com\/commentisfree\/2022\/jan\/27\/gen-z-workers-snowflakes-bad-treatment-bad-pay","apiUrl":"https:\/\/content.guardianapis.com\/commentisfree\/2022\/jan\/27\/gen-z-workers-snowflakes-bad-treatment-bad-pay","isHosted":false,"pillarId":"pillar\/opinion","pillarName":"Opinion"},{"id":"commentisfree\/2022\/jan\/26\/gen-z-indie-sleaze-camden","type":"article","sectionId":"commentisfree","sectionName":"Opinion","webPublicationDate":"2022-01-26T11:00:35Z","webTitle":"Gen Z are bringing back \u2018indie sleaze\u2019, and I suddenly feel ancient | Rhiannon Lucy Cosslett","webUrl":"https:\/\/www.theguardian.com\/commentisfree\/2022\/jan\/26\/gen-z-indie-sleaze-camden","apiUrl":"https:\/\/content.guardianapis.com\/commentisfree\/2022\/jan\/26\/gen-z-indie-sleaze-camden","isHosted":false,"pillarId":"pillar\/opinion","pillarName":"Opinion"},{"id":"football\/ng-interactive\/2021\/dec\/28\/david-squires-on-the-a-to-z-of-football-in-2021","type":"interactive","sectionId":"football","sectionName":"Football","webPublicationDate":"2021-12-28T10:03:57Z","webTitle":"David Squires on \u2026 the A to Z of football in 2021","webUrl":"https:\/\/www.theguardian.com\/football\/ng-interactive\/2021\/dec\/28\/david-squires-on-the-a-to-z-of-football-in-2021","apiUrl":"https:\/\/content.guardianapis.com\/football\/ng-interactive\/2021\/dec\/28\/david-squires-on-the-a-to-z-of-football-in-2021","isHosted":false,"pillarId":"pillar\/sport","pillarName":"Sport"},{"id":"technology\/2022\/mar\/13\/linkedin-gen-z-social-media-revival","type":"article","sectionId":"technology","sectionName":"Technology","webPublicationDate":"2022-03-13T12:00:28Z","webTitle":"Job\u2019s a good\u2019un: how LinkedIn transformed itself into a gen Z-friendly social media contender ","webUrl":"https:\/\/www.theguardian.com\/technology\/2022\/mar\/13\/linkedin-gen-z-social-media-revival","apiUrl":"https:\/\/content.guardianapis.com\/technology\/2022\/mar\/13\/linkedin-gen-z-social-media-revival","isHosted":false,"pillarId":"pillar\/news","pillarName":"News"},{"id":"commentisfree\/2022\/feb\/14\/porn-damaging-effects-millennials-gen-z-feminists","type":"article","sectionId":"commentisfree","sectionName":"Opinion","webPublicationDate":"2022-02-14T16:27:40Z","webTitle":"When it comes to porn\u2019s damaging effects, millennials and Gen Z feminists are united | Rhiannon Lucy Cosslett","webUrl":"https:\/\/www.theguardian.com\/commentisfree\/2022\/feb\/14\/porn-damaging-effects-millennials-gen-z-feminists","apiUrl":"https:\/\/content.guardianapis.com\/commentisfree\/2022\/feb\/14\/porn-damaging-effects-millennials-gen-z-feminists","isHosted":false,"pillarId":"pillar\/opinion","pillarName":"Opinion"},{"id":"commentisfree\/2022\/apr\/05\/jay-z-beyonce-picket-line-party-celebrity-activism-oscars-chateau-marmont","type":"article","sectionId":"commentisfree","sectionName":"Opinion","webPublicationDate":"2022-04-05T10:52:30Z","webTitle":"Jay-Z and Beyonc\u00e9 crossing a picket line to party shows how shallow celebrity activism really is | Emma Dabiri","webUrl":"https:\/\/www.theguardian.com\/commentisfree\/2022\/apr\/05\/jay-z-beyonce-picket-line-party-celebrity-activism-oscars-chateau-marmont","apiUrl":"https:\/\/content.guardianapis.com\/commentisfree\/2022\/apr\/05\/jay-z-beyonce-picket-line-party-celebrity-activism-oscars-chateau-marmont","isHosted":false,"pillarId":"pillar\/opinion","pillarName":"Opinion"}]}}