{"response":{"status":"ok","userTier":"developer","total":26544,"startIndex":1,"pageSize":10,"currentPage":1,"pages":2655,"orderBy":"relevance","results":[{"id":"sport\/2022\/may\/08\/jamie-chadwick-eclipses-w-series-rivals-with-back-to-back-victories","type":"article","sectionId":"sport","sectionName":"Sport","webPublicationDate":"2022-05-08T18:51:58Z","webTitle":"Jamie Chadwick eclipses W Series rivals with back-to-back victories","webUrl":"https:\/\/www.theguardian.com\/sport\/2022\/may\/08\/jamie-chadwick-eclipses-w-series-rivals-with-back-to-back-victories","apiUrl":"https:\/\/content.guardianapis.com\/sport\/2022\/may\/08\/jamie-chadwick-eclipses-w-series-rivals-with-back-to-back-victories","isHosted":false,"pillarId":"pillar\/sport","pillarName":"Sport"},{"id":"sport\/2022\/may\/06\/jamie-chadwick-expecting-tough-fight-for-title-as-w-series-season-begins","type":"article","sectionId":"sport","sectionName":"Sport","webPublicationDate":"2022-05-06T12:52:56Z","webTitle":"Jamie Chadwick expecting tough fight for title as W Series season begins","webUrl":"https:\/\/www.theguardian.com\/sport\/2022\/may\/06\/jamie-chadwick-expecting-tough-fight-for-title-as-w-series-season-begins","apiUrl":"https:\/\/content.guardianapis.com\/sport\/2022\/may\/06\/jamie-chadwick-expecting-tough-fight-for-title-as-w-series-season-begins","isHosted":false,"pillarId":"pillar\/sport","pillarName":"Sport"},{"id":"commentisfree\/2022\/may\/21\/george-bush-iraq-war-week-in-patriarchy","type":"article","sectionId":"commentisfree","sectionName":"Opinion","webPublicationDate":"2022-05-21T13:32:56Z","webTitle":"The audience chuckled at George W Bush\u2019s Iraq-Ukraine gaffe. I\u2019m not laughing | Arwa Mahdawi","webUrl":"https:\/\/www.theguardian.com\/commentisfree\/2022\/may\/21\/george-bush-iraq-war-week-in-patriarchy","apiUrl":"https:\/\/content.guardianapis.com\/commentisfree\/2022\/may\/21\/george-bush-iraq-war-week-in-patriarchy","isHosted":false,"pillarId":"pillar\/opinion","pillarName":"Opinion"},{"id":"us-news\/2022\/may\/19\/george-bush-iraq-ukraine-speech","type":"article","sectionId":"us-news","sectionName":"US news","webPublicationDate":"2022-05-19T15:30:37Z","webTitle":"George W Bush accidentally admits Iraq war was \u2018unjustified and brutal\u2019 in gaffe","webUrl":"https:\/\/www.theguardian.com\/us-news\/2022\/may\/19\/george-bush-iraq-ukraine-speech","apiUrl":"https:\/\/content.guardianapis.com\/us-news\/2022\/may\/19\/george-bush-iraq-ukraine-speech","isHosted":false,"pillarId":"pillar\/news","pillarName":"News"},{"id":"books\/2021\/dec\/13\/obituaries-2021-janet-malcolm-remembered-by-michael-w-miller","type":"article","sectionId":"books","sectionName":"Books","webPublicationDate":"2021-12-13T16:00:23Z","webTitle":"Those we lost in 2021: Janet Malcolm remembered by Michael W Miller","webUrl":"https:\/\/www.theguardian.com\/books\/2021\/dec\/13\/obituaries-2021-janet-malcolm-remembered-by-michael-w-miller","apiUrl":"https:\/\/content.guardianapis.com\/books\/2021\/dec\/13\/obituaries-2021-janet-malcolm-remembered-by-michael-w-miller","isHosted":false,"pillarId":"pillar\/arts","pillarName":"Arts"},{"id":"sport\/2022\/may\/07\/jamie-chadwick-pounces-on-final-miami-lap-win-as-w-series-title-race-begins","type":"article","sectionId":"sport","sectionName":"Sport","webPublicationDate":"2022-05-07T20:26:46Z","webTitle":"Jamie Chadwick pounces on final Miami lap to win as W Series title defence starts","webUrl":"https:\/\/www.theguardian.com\/sport\/2022\/may\/07\/jamie-chadwick-pounces-on-final-miami-lap-win-as-w-series-title-race-begins","apiUrl":"https:\/\/content.guardianapis.com\/sport\/2022\/may\/07\/jamie-chadwick-pounces-on-final-miami-lap-win-as-w-series-title-race-begins","isHosted":false,"pillarId":"pillar\/sport","pillarName":"Sport"},{"id":"sport\/2022\/may\/05\/w-series-looks-to-push-accelerator-on-change-as-grid-lines-up-for-2022-season","type":"article","sectionId":"sport","sectionName":"Sport","webPublicationDate":"2022-05-05T07:00:30Z","webTitle":"W Series looks to push accelerator on change as 2022 season kicks off | Giles Richards","webUrl":"https:\/\/www.theguardian.com\/sport\/2022\/may\/05\/w-series-looks-to-push-accelerator-on-change-as-grid-lines-up-for-2022-season","apiUrl":"https:\/\/content.guardianapis.com\/sport\/2022\/may\/05\/w-series-looks-to-push-accelerator-on-change-as-grid-lines-up-for-2022-season","isHosted":false,"pillarId":"pillar\/sport","pillarName":"Sport"},{"id":"film\/2022\/feb\/13\/rabiye-kurnaz-vs-george-w-bush-review-guantanamo-drama-andreas-dresen","type":"article","sectionId":"film","sectionName":"Film","webPublicationDate":"2022-02-13T16:19:32Z","webTitle":"Rabiye Kurnaz Vs George W Bush review \u2013 Guant\u00e1namo drama played for laughs","webUrl":"https:\/\/www.theguardian.com\/film\/2022\/feb\/13\/rabiye-kurnaz-vs-george-w-bush-review-guantanamo-drama-andreas-dresen","apiUrl":"https:\/\/content.guardianapis.com\/film\/2022\/feb\/13\/rabiye-kurnaz-vs-george-w-bush-review-guantanamo-drama-andreas-dresen","isHosted":false,"pillarId":"pillar\/arts","pillarName":"Arts"},{"id":"tv-and-radio\/2022\/jan\/26\/we-need-to-talk-about-cosby-docuseries-w-kamau-bell","type":"article","sectionId":"tv-and-radio","sectionName":"Television & radio","webPublicationDate":"2022-01-26T07:02:01Z","webTitle":"\u2018It was bigger than Cosby\u2019: W Kamau Bell on reckoning with an icon\u2019s fall","webUrl":"https:\/\/www.theguardian.com\/tv-and-radio\/2022\/jan\/26\/we-need-to-talk-about-cosby-docuseries-w-kamau-bell","apiUrl":"https:\/\/content.guardianapis.com\/tv-and-radio\/2022\/jan\/26\/we-need-to-talk-about-cosby-docuseries-w-kamau-bell","isHosted":false,"pillarId":"pillar\/arts","pillarName":"Arts"},{"id":"sport\/2021\/oct\/24\/jamie-chadwick-claims-w-series-title-after-two-weekend-victories","type":"article","sectionId":"sport","sectionName":"Sport","webPublicationDate":"2021-10-24T18:21:47Z","webTitle":"Britain\u2019s Jamie Chadwick claims W Series title after two weekend victories","webUrl":"https:\/\/www.theguardian.com\/sport\/2021\/oct\/24\/jamie-chadwick-claims-w-series-title-after-two-weekend-victories","apiUrl":"https:\/\/content.guardianapis.com\/sport\/2021\/oct\/24\/jamie-chadwick-claims-w-series-title-after-two-weekend-victories","isHosted":false,"pillarId":"pillar\/sport","pillarName":"Sport"}]}}