{"response":{"status":"ok","userTier":"developer","total":147308,"startIndex":1,"pageSize":10,"currentPage":1,"pages":14731,"orderBy":"relevance","results":[{"id":"business\/2022\/may\/17\/ms-chair-brexit-northern-ireland-archie-norman-uk","type":"article","sectionId":"business","sectionName":"Business","webPublicationDate":"2022-05-17T12:44:37Z","webTitle":"M&S chair attacks \u2018pointless\u2019 post-Brexit rules for Northern Ireland","webUrl":"https:\/\/www.theguardian.com\/business\/2022\/may\/17\/ms-chair-brexit-northern-ireland-archie-norman-uk","apiUrl":"https:\/\/content.guardianapis.com\/business\/2022\/may\/17\/ms-chair-brexit-northern-ireland-archie-norman-uk","isHosted":false,"pillarId":"pillar\/news","pillarName":"News"},{"id":"fashion\/2022\/mar\/26\/how-to-wear-stripe-trend","type":"article","sectionId":"fashion","sectionName":"Fashion","webPublicationDate":"2022-03-26T23:45:09Z","webTitle":"How to wear this season\u2019s stripes","webUrl":"https:\/\/www.theguardian.com\/fashion\/2022\/mar\/26\/how-to-wear-stripe-trend","apiUrl":"https:\/\/content.guardianapis.com\/fashion\/2022\/mar\/26\/how-to-wear-stripe-trend","isHosted":false,"pillarId":"pillar\/lifestyle","pillarName":"Lifestyle"},{"id":"science\/2022\/feb\/27\/ticket-to-roman-britain-hs2s-route-to-ancient-history","type":"article","sectionId":"science","sectionName":"Science","webPublicationDate":"2022-02-27T13:00:13Z","webTitle":"Ticket to Roman Britain: HS2\u2019s route to ancient history","webUrl":"https:\/\/www.theguardian.com\/science\/2022\/feb\/27\/ticket-to-roman-britain-hs2s-route-to-ancient-history","apiUrl":"https:\/\/content.guardianapis.com\/science\/2022\/feb\/27\/ticket-to-roman-britain-hs2s-route-to-ancient-history","isHosted":false,"pillarId":"pillar\/news","pillarName":"News"},{"id":"politics\/2022\/jan\/31\/gray-report-criticises-boris-johnson-team-excessive-alcohol-culture","type":"article","sectionId":"politics","sectionName":"Politics","webPublicationDate":"2022-01-31T19:06:35Z","webTitle":"Gray report criticises No 10\u2019s \u2018excessive\u2019 alcohol culture","webUrl":"https:\/\/www.theguardian.com\/politics\/2022\/jan\/31\/gray-report-criticises-boris-johnson-team-excessive-alcohol-culture","apiUrl":"https:\/\/content.guardianapis.com\/politics\/2022\/jan\/31\/gray-report-criticises-boris-johnson-team-excessive-alcohol-culture","isHosted":false,"pillarId":"pillar\/news","pillarName":"News"},{"id":"environment\/2022\/apr\/06\/pm-to-put-nuclear-power-at-heart-of-uks-energy-strategy","type":"article","sectionId":"environment","sectionName":"Environment","webPublicationDate":"2022-04-06T21:30:35Z","webTitle":"PM to put nuclear power at heart of UK \u2019s energy strategy","webUrl":"https:\/\/www.theguardian.com\/environment\/2022\/apr\/06\/pm-to-put-nuclear-power-at-heart-of-uks-energy-strategy","apiUrl":"https:\/\/content.guardianapis.com\/environment\/2022\/apr\/06\/pm-to-put-nuclear-power-at-heart-of-uks-energy-strategy","isHosted":false,"pillarId":"pillar\/news","pillarName":"News"},{"id":"business\/2022\/jan\/13\/fashion-turnaround-marks-spencer-christmas-style-sales-covid","type":"article","sectionId":"business","sectionName":"Business","webPublicationDate":"2022-01-13T16:22:59Z","webTitle":"Fashion turnaround helps M&S celebrate Christmas in style ","webUrl":"https:\/\/www.theguardian.com\/business\/2022\/jan\/13\/fashion-turnaround-marks-spencer-christmas-style-sales-covid","apiUrl":"https:\/\/content.guardianapis.com\/business\/2022\/jan\/13\/fashion-turnaround-marks-spencer-christmas-style-sales-covid","isHosted":false,"pillarId":"pillar\/news","pillarName":"News"},{"id":"culture\/2022\/may\/06\/the-guide-best-video-games-2022","type":"article","sectionId":"culture","sectionName":"Culture","webPublicationDate":"2022-05-06T10:45:15Z","webTitle":"The Guide #33: From Elden Ring to Tunic, 2022\u2019s best games so far","webUrl":"https:\/\/www.theguardian.com\/culture\/2022\/may\/06\/the-guide-best-video-games-2022","apiUrl":"https:\/\/content.guardianapis.com\/culture\/2022\/may\/06\/the-guide-best-video-games-2022","isHosted":false,"pillarId":"pillar\/arts","pillarName":"Arts"},{"id":"music\/2022\/may\/18\/antonia-cytrynowicz-sam-gendel-live-a-little-interview","type":"article","sectionId":"music","sectionName":"Music","webPublicationDate":"2022-05-18T10:54:23Z","webTitle":"\u2018Her playfulness is infectious\u2019: meet the 12-year-old behind 2022\u2019s most beguiling album","webUrl":"https:\/\/www.theguardian.com\/music\/2022\/may\/18\/antonia-cytrynowicz-sam-gendel-live-a-little-interview","apiUrl":"https:\/\/content.guardianapis.com\/music\/2022\/may\/18\/antonia-cytrynowicz-sam-gendel-live-a-little-interview","isHosted":false,"pillarId":"pillar\/arts","pillarName":"Arts"},{"id":"sport\/blog\/2022\/apr\/07\/las-vegas-gp-signals-f1s-ambition-of-us-expansion-at-europes-expense","type":"article","sectionId":"sport","sectionName":"Sport","webPublicationDate":"2022-04-07T15:04:33Z","webTitle":"Las Vegas GP signals F1\u2019s ambition of US expansion at Europe\u2019s expense","webUrl":"https:\/\/www.theguardian.com\/sport\/blog\/2022\/apr\/07\/las-vegas-gp-signals-f1s-ambition-of-us-expansion-at-europes-expense","apiUrl":"https:\/\/content.guardianapis.com\/sport\/blog\/2022\/apr\/07\/las-vegas-gp-signals-f1s-ambition-of-us-expansion-at-europes-expense","isHosted":false,"pillarId":"pillar\/sport","pillarName":"Sport"},{"id":"culture\/2021\/dec\/24\/the-guide-best-films-tv-books-albums-podcasts-2021","type":"article","sectionId":"culture","sectionName":"Culture","webPublicationDate":"2021-12-24T11:45:23Z","webTitle":"The Guide #14: readers pick 2021\u2019s best culture","webUrl":"https:\/\/www.theguardian.com\/culture\/2021\/dec\/24\/the-guide-best-films-tv-books-albums-podcasts-2021","apiUrl":"https:\/\/content.guardianapis.com\/culture\/2021\/dec\/24\/the-guide-best-films-tv-books-albums-podcasts-2021","isHosted":false,"pillarId":"pillar\/arts","pillarName":"Arts"}]}}