{"response":{"status":"ok","userTier":"developer","total":154865,"startIndex":1,"pageSize":10,"currentPage":1,"pages":15487,"orderBy":"relevance","results":[{"id":"business\/2022\/may\/23\/bq-kingfisher-inflation-diy-demand-sales-covid","type":"article","sectionId":"business","sectionName":"Business","webPublicationDate":"2022-05-23T08:31:05Z","webTitle":"B&Q owner Kingfisher \u2018managing inflation\u2019 as DIY demand continues","webUrl":"https:\/\/www.theguardian.com\/business\/2022\/may\/23\/bq-kingfisher-inflation-diy-demand-sales-covid","apiUrl":"https:\/\/content.guardianapis.com\/business\/2022\/may\/23\/bq-kingfisher-inflation-diy-demand-sales-covid","isHosted":false,"pillarId":"pillar\/news","pillarName":"News"},{"id":"environment\/2022\/may\/01\/hinkley-point-b-nuclear-plant-could-be-spared-imminent-closure","type":"article","sectionId":"business","sectionName":"Business","webPublicationDate":"2022-05-01T13:04:40Z","webTitle":"Hinkley Point B nuclear plant could be spared imminent closure","webUrl":"https:\/\/www.theguardian.com\/environment\/2022\/may\/01\/hinkley-point-b-nuclear-plant-could-be-spared-imminent-closure","apiUrl":"https:\/\/content.guardianapis.com\/environment\/2022\/may\/01\/hinkley-point-b-nuclear-plant-could-be-spared-imminent-closure","isHosted":false,"pillarId":"pillar\/news","pillarName":"News"},{"id":"business\/2022\/may\/16\/andrew-bailey-bank-of-england-economy-sketch","type":"article","sectionId":"business","sectionName":"Business","webPublicationDate":"2022-05-16T19:58:55Z","webTitle":"Bailey sets alarm bells ringing while barely mentioning the B-word","webUrl":"https:\/\/www.theguardian.com\/business\/2022\/may\/16\/andrew-bailey-bank-of-england-economy-sketch","apiUrl":"https:\/\/content.guardianapis.com\/business\/2022\/may\/16\/andrew-bailey-bank-of-england-economy-sketch","isHosted":false,"pillarId":"pillar\/news","pillarName":"News"},{"id":"music\/2022\/mar\/26\/cardi-b-sister-carolina-hennessy-lawsuit-defamation","type":"article","sectionId":"music","sectionName":"Music","webPublicationDate":"2022-03-26T21:20:10Z","webTitle":"Cardi B beats lawsuit over alleged defamation during parking feud","webUrl":"https:\/\/www.theguardian.com\/music\/2022\/mar\/26\/cardi-b-sister-carolina-hennessy-lawsuit-defamation","apiUrl":"https:\/\/content.guardianapis.com\/music\/2022\/mar\/26\/cardi-b-sister-carolina-hennessy-lawsuit-defamation","isHosted":false,"pillarId":"pillar\/arts","pillarName":"Arts"},{"id":"business\/2022\/apr\/22\/bm-boss-simon-arora-to-step-down-from-discount-chain","type":"article","sectionId":"business","sectionName":"Business","webPublicationDate":"2022-04-22T09:50:06Z","webTitle":"Billionaire B&M boss to retire from discount chain after 18 years","webUrl":"https:\/\/www.theguardian.com\/business\/2022\/apr\/22\/bm-boss-simon-arora-to-step-down-from-discount-chain","apiUrl":"https:\/\/content.guardianapis.com\/business\/2022\/apr\/22\/bm-boss-simon-arora-to-step-down-from-discount-chain","isHosted":false,"pillarId":"pillar\/news","pillarName":"News"},{"id":"music\/2022\/jan\/11\/james-mtume-hits-recordings-jazz-funk","type":"article","sectionId":"music","sectionName":"Music","webPublicationDate":"2022-01-11T15:03:38Z","webTitle":"Jazz, R&B and \u2018sophistifunk\u2019: James Mtume\u2019s greatest recordings","webUrl":"https:\/\/www.theguardian.com\/music\/2022\/jan\/11\/james-mtume-hits-recordings-jazz-funk","apiUrl":"https:\/\/content.guardianapis.com\/music\/2022\/jan\/11\/james-mtume-hits-recordings-jazz-funk","isHosted":false,"pillarId":"pillar\/arts","pillarName":"Arts"},{"id":"film\/2022\/mar\/27\/ambulance-review-michael-bay-jake-gyllenhaal","type":"article","sectionId":"film","sectionName":"Film","webPublicationDate":"2022-03-27T10:30:22Z","webTitle":"Ambulance review \u2013 a decent B-movie spoiled by the Michael Bay treatment","webUrl":"https:\/\/www.theguardian.com\/film\/2022\/mar\/27\/ambulance-review-michael-bay-jake-gyllenhaal","apiUrl":"https:\/\/content.guardianapis.com\/film\/2022\/mar\/27\/ambulance-review-michael-bay-jake-gyllenhaal","isHosted":false,"pillarId":"pillar\/arts","pillarName":"Arts"},{"id":"world\/2022\/jan\/22\/shielders-say-lifting-of-england-plan-b-covid-restrictions-complete-nightmare","type":"article","sectionId":"world","sectionName":"World news","webPublicationDate":"2022-01-22T08:30:48Z","webTitle":"Shielders say lifting of England\u2019s Plan B restrictions \u2018complete nightmare\u2019","webUrl":"https:\/\/www.theguardian.com\/world\/2022\/jan\/22\/shielders-say-lifting-of-england-plan-b-covid-restrictions-complete-nightmare","apiUrl":"https:\/\/content.guardianapis.com\/world\/2022\/jan\/22\/shielders-say-lifting-of-england-plan-b-covid-restrictions-complete-nightmare","isHosted":false,"pillarId":"pillar\/news","pillarName":"News"},{"id":"lifeandstyle\/2021\/dec\/30\/my-winter-of-love-holiday-boyfriend-horrifying-home-truth","type":"article","sectionId":"lifeandstyle","sectionName":"Life and style","webPublicationDate":"2021-12-30T06:00:44Z","webTitle":"My winter of love: I was on holiday with my boyfriend \u2013 and the B&B owner told me a horrifying home truth","webUrl":"https:\/\/www.theguardian.com\/lifeandstyle\/2021\/dec\/30\/my-winter-of-love-holiday-boyfriend-horrifying-home-truth","apiUrl":"https:\/\/content.guardianapis.com\/lifeandstyle\/2021\/dec\/30\/my-winter-of-love-holiday-boyfriend-horrifying-home-truth","isHosted":false,"pillarId":"pillar\/lifestyle","pillarName":"Lifestyle"},{"id":"business\/2022\/mar\/22\/bq-screwfix-staff-pay-rise-diy-kingfisher","type":"article","sectionId":"business","sectionName":"Business","webPublicationDate":"2022-03-22T10:57:45Z","webTitle":"B&Q and Screwfix staff to get pay rise as DIY boom continues","webUrl":"https:\/\/www.theguardian.com\/business\/2022\/mar\/22\/bq-screwfix-staff-pay-rise-diy-kingfisher","apiUrl":"https:\/\/content.guardianapis.com\/business\/2022\/mar\/22\/bq-screwfix-staff-pay-rise-diy-kingfisher","isHosted":false,"pillarId":"pillar\/news","pillarName":"News"}]}}