{"response":{"status":"ok","userTier":"developer","total":24920,"startIndex":1,"pageSize":10,"currentPage":1,"pages":2492,"orderBy":"relevance","results":[{"id":"politics\/2021\/nov\/04\/charge-retreat-boris-johnsons-top-u-turns-in-no-10","type":"article","sectionId":"politics","sectionName":"Politics","webPublicationDate":"2022-04-21T11:44:38Z","webTitle":"Charge \u2026 retreat! Boris Johnson\u2019s top U-turns in No 10","webUrl":"https:\/\/www.theguardian.com\/politics\/2021\/nov\/04\/charge-retreat-boris-johnsons-top-u-turns-in-no-10","apiUrl":"https:\/\/content.guardianapis.com\/politics\/2021\/nov\/04\/charge-retreat-boris-johnsons-top-u-turns-in-no-10","isHosted":false,"pillarId":"pillar\/news","pillarName":"News"},{"id":"business\/2022\/mar\/11\/british-american-tobacco-halts-russia-sales-after-u-turn","type":"article","sectionId":"business","sectionName":"Business","webPublicationDate":"2022-03-11T17:47:16Z","webTitle":"British American Tobacco halts Russia sales after U-turn","webUrl":"https:\/\/www.theguardian.com\/business\/2022\/mar\/11\/british-american-tobacco-halts-russia-sales-after-u-turn","apiUrl":"https:\/\/content.guardianapis.com\/business\/2022\/mar\/11\/british-american-tobacco-halts-russia-sales-after-u-turn","isHosted":false,"pillarId":"pillar\/news","pillarName":"News"},{"id":"world\/2022\/mar\/07\/georgia-expedites-eu-application-in-policy-u-turn-russia-ukraine","type":"article","sectionId":"world","sectionName":"World news","webPublicationDate":"2022-03-07T11:31:37Z","webTitle":"Georgia speeds up EU application in policy U-turn","webUrl":"https:\/\/www.theguardian.com\/world\/2022\/mar\/07\/georgia-expedites-eu-application-in-policy-u-turn-russia-ukraine","apiUrl":"https:\/\/content.guardianapis.com\/world\/2022\/mar\/07\/georgia-expedites-eu-application-in-policy-u-turn-russia-ukraine","isHosted":false,"pillarId":"pillar\/news","pillarName":"News"},{"id":"money\/2022\/mar\/29\/ba-changes-course-cash-evouchers-covid","type":"article","sectionId":"money","sectionName":"Money","webPublicationDate":"2022-03-29T06:00:15Z","webTitle":"BA makes U-turn over cash for vouchers after Covid cancellations","webUrl":"https:\/\/www.theguardian.com\/money\/2022\/mar\/29\/ba-changes-course-cash-evouchers-covid","apiUrl":"https:\/\/content.guardianapis.com\/money\/2022\/mar\/29\/ba-changes-course-cash-evouchers-covid","isHosted":false,"pillarId":"pillar\/lifestyle","pillarName":"Lifestyle"},{"id":"world\/2022\/mar\/02\/germany-unites-behind-chancellor-olaf-scholz-u-turn-on-arming-ukraine-russia","type":"article","sectionId":"world","sectionName":"World news","webPublicationDate":"2022-03-02T14:05:38Z","webTitle":"Germany unites behind chancellor\u2019s historic U-turn on arming Ukraine","webUrl":"https:\/\/www.theguardian.com\/world\/2022\/mar\/02\/germany-unites-behind-chancellor-olaf-scholz-u-turn-on-arming-ukraine-russia","apiUrl":"https:\/\/content.guardianapis.com\/world\/2022\/mar\/02\/germany-unites-behind-chancellor-olaf-scholz-u-turn-on-arming-ukraine-russia","isHosted":false,"pillarId":"pillar\/news","pillarName":"News"},{"id":"sport\/2022\/apr\/08\/british-cycling-u-turn-freezes-trans-women-out-of-elite-female-events","type":"article","sectionId":"sport","sectionName":"Sport","webPublicationDate":"2022-04-08T13:04:44Z","webTitle":"British Cycling U-turn freezes trans women out of elite female events","webUrl":"https:\/\/www.theguardian.com\/sport\/2022\/apr\/08\/british-cycling-u-turn-freezes-trans-women-out-of-elite-female-events","apiUrl":"https:\/\/content.guardianapis.com\/sport\/2022\/apr\/08\/british-cycling-u-turn-freezes-trans-women-out-of-elite-female-events","isHosted":false,"pillarId":"pillar\/sport","pillarName":"Sport"},{"id":"world\/2022\/feb\/22\/an-internee-ship-and-a-u-boat-captain-at-sea","type":"article","sectionId":"world","sectionName":"World news","webPublicationDate":"2022-02-22T17:15:19Z","webTitle":"An internee ship and a U-boat captain at sea | Letter","webUrl":"https:\/\/www.theguardian.com\/world\/2022\/feb\/22\/an-internee-ship-and-a-u-boat-captain-at-sea","apiUrl":"https:\/\/content.guardianapis.com\/world\/2022\/feb\/22\/an-internee-ship-and-a-u-boat-captain-at-sea","isHosted":false,"pillarId":"pillar\/news","pillarName":"News"},{"id":"politics\/2022\/apr\/27\/rishi-sunak-uk-oil-and-gas-windfall-tax","type":"article","sectionId":"politics","sectionName":"Politics","webPublicationDate":"2022-04-27T18:29:33Z","webTitle":"Rishi Sunak hints at U-turn on UK oil and gas windfall tax","webUrl":"https:\/\/www.theguardian.com\/politics\/2022\/apr\/27\/rishi-sunak-uk-oil-and-gas-windfall-tax","apiUrl":"https:\/\/content.guardianapis.com\/politics\/2022\/apr\/27\/rishi-sunak-uk-oil-and-gas-windfall-tax","isHosted":false,"pillarId":"pillar\/news","pillarName":"News"},{"id":"world\/2022\/apr\/01\/conversion-practices-u-turns-set-tories-back-25-years-with-lgbt-community","type":"article","sectionId":"world","sectionName":"World news","webPublicationDate":"2022-04-01T16:03:38Z","webTitle":"Conversion practices U-turns \u2018set Tories back 25 years\u2019 with LGBT+ community ","webUrl":"https:\/\/www.theguardian.com\/world\/2022\/apr\/01\/conversion-practices-u-turns-set-tories-back-25-years-with-lgbt-community","apiUrl":"https:\/\/content.guardianapis.com\/world\/2022\/apr\/01\/conversion-practices-u-turns-set-tories-back-25-years-with-lgbt-community","isHosted":false,"pillarId":"pillar\/news","pillarName":"News"},{"id":"education\/2022\/mar\/29\/influential-pen-green-childrens-centre-saved-from-closure-after-council-u-turn","type":"article","sectionId":"education","sectionName":"Education","webPublicationDate":"2022-03-29T18:46:12Z","webTitle":"Influential Pen Green children\u2019s centre saved from closure after council U-turn","webUrl":"https:\/\/www.theguardian.com\/education\/2022\/mar\/29\/influential-pen-green-childrens-centre-saved-from-closure-after-council-u-turn","apiUrl":"https:\/\/content.guardianapis.com\/education\/2022\/mar\/29\/influential-pen-green-childrens-centre-saved-from-closure-after-council-u-turn","isHosted":false,"pillarId":"pillar\/news","pillarName":"News"}]}}