{"response":{"status":"ok","userTier":"developer","total":15264,"startIndex":1,"pageSize":10,"currentPage":1,"pages":1527,"orderBy":"relevance","results":[{"id":"sport\/blog\/2022\/may\/23\/jason-kubler-australias-third-tennis-special-k-breaks-through-at-french-open","type":"article","sectionId":"sport","sectionName":"Sport","webPublicationDate":"2022-05-23T00:00:26Z","webTitle":"Jason Kubler: Australia\u2019s third Special K breaks through at French Open | Courtney Walsh","webUrl":"https:\/\/www.theguardian.com\/sport\/blog\/2022\/may\/23\/jason-kubler-australias-third-tennis-special-k-breaks-through-at-french-open","apiUrl":"https:\/\/content.guardianapis.com\/sport\/blog\/2022\/may\/23\/jason-kubler-australias-third-tennis-special-k-breaks-through-at-french-open","isHosted":false,"pillarId":"pillar\/sport","pillarName":"Sport"},{"id":"commentisfree\/2022\/feb\/09\/can-k-pop-boyband-bts-save-the-world","type":"article","sectionId":"commentisfree","sectionName":"Opinion","webPublicationDate":"2022-02-09T11:16:04Z","webTitle":"Can the K-pop boyband BTS \u2026 save the world?","webUrl":"https:\/\/www.theguardian.com\/commentisfree\/2022\/feb\/09\/can-k-pop-boyband-bts-save-the-world","apiUrl":"https:\/\/content.guardianapis.com\/commentisfree\/2022\/feb\/09\/can-k-pop-boyband-bts-save-the-world","isHosted":false,"pillarId":"pillar\/opinion","pillarName":"Opinion"},{"id":"tv-and-radio\/2021\/sep\/07\/michael-k-williams-obituary","type":"article","sectionId":"tv-and-radio","sectionName":"Television & radio","webPublicationDate":"2021-09-07T15:19:43Z","webTitle":"Michael K Williams obituary","webUrl":"https:\/\/www.theguardian.com\/tv-and-radio\/2021\/sep\/07\/michael-k-williams-obituary","apiUrl":"https:\/\/content.guardianapis.com\/tv-and-radio\/2021\/sep\/07\/michael-k-williams-obituary","isHosted":false,"pillarId":"pillar\/arts","pillarName":"Arts"},{"id":"artanddesign\/2021\/oct\/13\/k-pop-k-boom-k-cinema-k-art-south-korea-stars","type":"article","sectionId":"artanddesign","sectionName":"Art and design","webPublicationDate":"2021-10-13T05:00:12Z","webTitle":"K-boom! How the unstoppable stars of K-pop went gunning for the art world","webUrl":"https:\/\/www.theguardian.com\/artanddesign\/2021\/oct\/13\/k-pop-k-boom-k-cinema-k-art-south-korea-stars","apiUrl":"https:\/\/content.guardianapis.com\/artanddesign\/2021\/oct\/13\/k-pop-k-boom-k-cinema-k-art-south-korea-stars","isHosted":false,"pillarId":"pillar\/arts","pillarName":"Arts"},{"id":"sport\/2022\/apr\/02\/final-four-duke-unc-kansas-villanova-scores","type":"article","sectionId":"sport","sectionName":"Sport","webPublicationDate":"2022-04-03T00:59:53Z","webTitle":"UNC retire Coach K in Final Four classic, joining Kansas in NCAA title game","webUrl":"https:\/\/www.theguardian.com\/sport\/2022\/apr\/02\/final-four-duke-unc-kansas-villanova-scores","apiUrl":"https:\/\/content.guardianapis.com\/sport\/2022\/apr\/02\/final-four-duke-unc-kansas-villanova-scores","isHosted":false,"pillarId":"pillar\/sport","pillarName":"Sport"},{"id":"us-news\/2022\/feb\/02\/michael-k-williams-death-men-charged","type":"article","sectionId":"us-news","sectionName":"US news","webPublicationDate":"2022-02-02T20:02:20Z","webTitle":"Michael K Williams: four men charged in overdose death of Wire actor ","webUrl":"https:\/\/www.theguardian.com\/us-news\/2022\/feb\/02\/michael-k-williams-death-men-charged","apiUrl":"https:\/\/content.guardianapis.com\/us-news\/2022\/feb\/02\/michael-k-williams-death-men-charged","isHosted":false,"pillarId":"pillar\/news","pillarName":"News"},{"id":"world\/2022\/feb\/24\/bumzu-producer-behind-k-pops-biggest-stars-south-korea","type":"article","sectionId":"world","sectionName":"World news","webPublicationDate":"2022-02-24T01:00:07Z","webTitle":"From tuna fishing to teen love: the producer behind K-pop\u2019s biggest stars ","webUrl":"https:\/\/www.theguardian.com\/world\/2022\/feb\/24\/bumzu-producer-behind-k-pops-biggest-stars-south-korea","apiUrl":"https:\/\/content.guardianapis.com\/world\/2022\/feb\/24\/bumzu-producer-behind-k-pops-biggest-stars-south-korea","isHosted":false,"pillarId":"pillar\/news","pillarName":"News"},{"id":"commentisfree\/2022\/feb\/11\/michael-k-williams-overdose-us-addiction-crisis","type":"article","sectionId":"commentisfree","sectionName":"Opinion","webPublicationDate":"2022-02-11T11:15:33Z","webTitle":"Arresting Michael K Williams\u2019 alleged drug dealers won\u2019t solve the US addiction crisis | Akin Olla","webUrl":"https:\/\/www.theguardian.com\/commentisfree\/2022\/feb\/11\/michael-k-williams-overdose-us-addiction-crisis","apiUrl":"https:\/\/content.guardianapis.com\/commentisfree\/2022\/feb\/11\/michael-k-williams-overdose-us-addiction-crisis","isHosted":false,"pillarId":"pillar\/opinion","pillarName":"Opinion"},{"id":"lifeandstyle\/2022\/jan\/16\/from-the-observer-archive-koreas-national-dance-company-visits-london-1977","type":"article","sectionId":"lifeandstyle","sectionName":"Life and style","webPublicationDate":"2022-01-16T06:00:43Z","webTitle":"Precursors of K-pop: Korea\u2019s National Dance Company astonishes Sadler\u2019s Wells, 1977","webUrl":"https:\/\/www.theguardian.com\/lifeandstyle\/2022\/jan\/16\/from-the-observer-archive-koreas-national-dance-company-visits-london-1977","apiUrl":"https:\/\/content.guardianapis.com\/lifeandstyle\/2022\/jan\/16\/from-the-observer-archive-koreas-national-dance-company-visits-london-1977","isHosted":false,"pillarId":"pillar\/lifestyle","pillarName":"Lifestyle"},{"id":"australia-news\/2022\/jan\/31\/five-great-reads-witness-k-workplace-jerks-and-lunar-new-year-in-bankstown","type":"article","sectionId":"australia-news","sectionName":"Australia news","webPublicationDate":"2022-01-30T23:25:33Z","webTitle":"Five Great Reads: Witness K, workplace jerks and lunar new year in Bankstown","webUrl":"https:\/\/www.theguardian.com\/australia-news\/2022\/jan\/31\/five-great-reads-witness-k-workplace-jerks-and-lunar-new-year-in-bankstown","apiUrl":"https:\/\/content.guardianapis.com\/australia-news\/2022\/jan\/31\/five-great-reads-witness-k-workplace-jerks-and-lunar-new-year-in-bankstown","isHosted":false,"pillarId":"pillar\/news","pillarName":"News"}]}}