{"response":{"status":"ok","userTier":"developer","total":24371,"startIndex":1,"pageSize":10,"currentPage":1,"pages":2438,"orderBy":"relevance","results":[{"id":"film\/2022\/may\/19\/chip-n-dale-rescue-rangers-review-disney","type":"article","sectionId":"film","sectionName":"Film","webPublicationDate":"2022-05-19T20:13:50Z","webTitle":"Chip \u2018n Dale: Rescue Rangers review \u2013 surprisingly sharp Disney+ update","webUrl":"https:\/\/www.theguardian.com\/film\/2022\/may\/19\/chip-n-dale-rescue-rangers-review-disney","apiUrl":"https:\/\/content.guardianapis.com\/film\/2022\/may\/19\/chip-n-dale-rescue-rangers-review-disney","isHosted":false,"pillarId":"pillar\/arts","pillarName":"Arts"},{"id":"uk-news\/2022\/mar\/04\/scotland-covid-cases-rise-while-england-and-n-ireland-show-falls","type":"article","sectionId":"uk-news","sectionName":"UK news","webPublicationDate":"2022-03-04T16:06:32Z","webTitle":"Scotland\u2019s Covid cases rise, while England and N Ireland show falls","webUrl":"https:\/\/www.theguardian.com\/uk-news\/2022\/mar\/04\/scotland-covid-cases-rise-while-england-and-n-ireland-show-falls","apiUrl":"https:\/\/content.guardianapis.com\/uk-news\/2022\/mar\/04\/scotland-covid-cases-rise-while-england-and-n-ireland-show-falls","isHosted":false,"pillarId":"pillar\/news","pillarName":"News"},{"id":"artanddesign\/2022\/apr\/03\/the-big-picture-lost-childhoods-in-an-asylum-seekers-camp-in-mexico","type":"article","sectionId":"artanddesign","sectionName":"Art and design","webPublicationDate":"2022-04-03T06:00:11Z","webTitle":"The big picture: lost childhoods in a\u200bn \u200basylum seekers\u2019 camp\u200b in Mexico","webUrl":"https:\/\/www.theguardian.com\/artanddesign\/2022\/apr\/03\/the-big-picture-lost-childhoods-in-an-asylum-seekers-camp-in-mexico","apiUrl":"https:\/\/content.guardianapis.com\/artanddesign\/2022\/apr\/03\/the-big-picture-lost-childhoods-in-an-asylum-seekers-camp-in-mexico","isHosted":false,"pillarId":"pillar\/arts","pillarName":"Arts"},{"id":"culture\/2022\/feb\/07\/dwayne-johnson-rock-joe-rogan-n-word","type":"article","sectionId":"culture","sectionName":"Culture","webPublicationDate":"2022-02-07T14:22:27Z","webTitle":"Dwayne Johnson appears to withdraw Joe Rogan support after N-word video","webUrl":"https:\/\/www.theguardian.com\/culture\/2022\/feb\/07\/dwayne-johnson-rock-joe-rogan-n-word","apiUrl":"https:\/\/content.guardianapis.com\/culture\/2022\/feb\/07\/dwayne-johnson-rock-joe-rogan-n-word","isHosted":false,"pillarId":"pillar\/arts","pillarName":"Arts"},{"id":"film\/2021\/nov\/30\/uk-film-classification-board-tightens-up-on-n-word-and-racism","type":"article","sectionId":"film","sectionName":"Film","webPublicationDate":"2021-11-30T06:01:08Z","webTitle":"UK film classification board tightens up on N-word and racism","webUrl":"https:\/\/www.theguardian.com\/film\/2021\/nov\/30\/uk-film-classification-board-tightens-up-on-n-word-and-racism","apiUrl":"https:\/\/content.guardianapis.com\/film\/2021\/nov\/30\/uk-film-classification-board-tightens-up-on-n-word-and-racism","isHosted":false,"pillarId":"pillar\/arts","pillarName":"Arts"},{"id":"world\/2022\/jan\/22\/kebabs-n-jabs-the-punjabi-grill-in-gravesend-offering-a-side-of-covid-shots","type":"article","sectionId":"world","sectionName":"World news","webPublicationDate":"2022-01-22T18:43:27Z","webTitle":"Kebabs \u2019n\u2019 jabs: the Punjabi grill in Gravesend offering a side of Covid shots","webUrl":"https:\/\/www.theguardian.com\/world\/2022\/jan\/22\/kebabs-n-jabs-the-punjabi-grill-in-gravesend-offering-a-side-of-covid-shots","apiUrl":"https:\/\/content.guardianapis.com\/world\/2022\/jan\/22\/kebabs-n-jabs-the-punjabi-grill-in-gravesend-offering-a-side-of-covid-shots","isHosted":false,"pillarId":"pillar\/news","pillarName":"News"},{"id":"culture\/2022\/feb\/08\/trevor-noah-joe-rogan-n-word","type":"article","sectionId":"culture","sectionName":"Culture","webPublicationDate":"2022-02-08T16:47:27Z","webTitle":"Trevor Noah on using the N-word: \u2018Just stop saying it or just be racist\u2019","webUrl":"https:\/\/www.theguardian.com\/culture\/2022\/feb\/08\/trevor-noah-joe-rogan-n-word","apiUrl":"https:\/\/content.guardianapis.com\/culture\/2022\/feb\/08\/trevor-noah-joe-rogan-n-word","isHosted":false,"pillarId":"pillar\/arts","pillarName":"Arts"},{"id":"books\/2022\/mar\/15\/all-i-ever-wanted-a-rock-n-roll-memoir-by-kathy-valentine-review-10-legged-hell-raising-machine","type":"article","sectionId":"books","sectionName":"Books","webPublicationDate":"2022-03-15T07:00:45Z","webTitle":"All I Ever Wanted: A Rock \u2019n\u2019 Roll Memoir by Kathy Valentine review \u2013 10-legged hell-raising machine","webUrl":"https:\/\/www.theguardian.com\/books\/2022\/mar\/15\/all-i-ever-wanted-a-rock-n-roll-memoir-by-kathy-valentine-review-10-legged-hell-raising-machine","apiUrl":"https:\/\/content.guardianapis.com\/books\/2022\/mar\/15\/all-i-ever-wanted-a-rock-n-roll-memoir-by-kathy-valentine-review-10-legged-hell-raising-machine","isHosted":false,"pillarId":"pillar\/arts","pillarName":"Arts"},{"id":"stage\/2021\/sep\/24\/love-n-stuff-review-oldham-coliseum","type":"article","sectionId":"stage","sectionName":"Stage","webPublicationDate":"2021-09-24T05:00:09Z","webTitle":"Love N Stuff review \u2013 a marriage in meltdown at Heathrow","webUrl":"https:\/\/www.theguardian.com\/stage\/2021\/sep\/24\/love-n-stuff-review-oldham-coliseum","apiUrl":"https:\/\/content.guardianapis.com\/stage\/2021\/sep\/24\/love-n-stuff-review-oldham-coliseum","isHosted":false,"pillarId":"pillar\/arts","pillarName":"Arts"},{"id":"sport\/live\/2021\/oct\/28\/uefa-womens-euro-2022-group-stage-draw-england-northern-ireland-live","type":"liveblog","sectionId":"football","sectionName":"Football","webPublicationDate":"2021-10-28T17:02:30Z","webTitle":"Women\u2019s Euro 2022: England and N Ireland drawn together \u2013 as it happened","webUrl":"https:\/\/www.theguardian.com\/sport\/live\/2021\/oct\/28\/uefa-womens-euro-2022-group-stage-draw-england-northern-ireland-live","apiUrl":"https:\/\/content.guardianapis.com\/sport\/live\/2021\/oct\/28\/uefa-womens-euro-2022-group-stage-draw-england-northern-ireland-live","isHosted":false,"pillarId":"pillar\/sport","pillarName":"Sport"}]}}