{"response":{"status":"ok","userTier":"developer","total":60099,"startIndex":1,"pageSize":10,"currentPage":1,"pages":6010,"orderBy":"relevance","results":[{"id":"science\/2022\/may\/09\/car-t-cell-therapy-shows-early-promise-in-treating-gastric-cancers","type":"article","sectionId":"science","sectionName":"Science","webPublicationDate":"2022-05-09T15:36:40Z","webTitle":"Car T-cell therapy shows early promise in treating gastric cancers","webUrl":"https:\/\/www.theguardian.com\/science\/2022\/may\/09\/car-t-cell-therapy-shows-early-promise-in-treating-gastric-cancers","apiUrl":"https:\/\/content.guardianapis.com\/science\/2022\/may\/09\/car-t-cell-therapy-shows-early-promise-in-treating-gastric-cancers","isHosted":false,"pillarId":"pillar\/news","pillarName":"News"},{"id":"sport\/2022\/may\/07\/willy-t-ribbs-pioneering-f1-path-lewis-hamilton","type":"article","sectionId":"sport","sectionName":"Sport","webPublicationDate":"2022-05-07T07:00:26Z","webTitle":"Hamilton, hope and making history: Willy T Ribbs\u2019 pioneering F1 path","webUrl":"https:\/\/www.theguardian.com\/sport\/2022\/may\/07\/willy-t-ribbs-pioneering-f1-path-lewis-hamilton","apiUrl":"https:\/\/content.guardianapis.com\/sport\/2022\/may\/07\/willy-t-ribbs-pioneering-f1-path-lewis-hamilton","isHosted":false,"pillarId":"pillar\/sport","pillarName":"Sport"},{"id":"world\/2022\/apr\/27\/totally-dysfunctional-sophie-in-t-veld-on-the-eus-relationship-with-democracy","type":"article","sectionId":"world","sectionName":"World news","webPublicationDate":"2022-04-27T13:00:31Z","webTitle":"\u2018Totally dysfunctional\u2019: Sophie in \u2018t Veld on the EU\u2019s relationship with democracy","webUrl":"https:\/\/www.theguardian.com\/world\/2022\/apr\/27\/totally-dysfunctional-sophie-in-t-veld-on-the-eus-relationship-with-democracy","apiUrl":"https:\/\/content.guardianapis.com\/world\/2022\/apr\/27\/totally-dysfunctional-sophie-in-t-veld-on-the-eus-relationship-with-democracy","isHosted":false,"pillarId":"pillar\/news","pillarName":"News"},{"id":"tv-and-radio\/2022\/apr\/15\/ditch-the-tardis-five-ways-russell-t-davies-could-revive-doctor-who","type":"article","sectionId":"tv-and-radio","sectionName":"Television & radio","webPublicationDate":"2022-04-15T15:00:34Z","webTitle":"Ditch the Tardis! Seven ways Russell T Davies could revive Doctor Who","webUrl":"https:\/\/www.theguardian.com\/tv-and-radio\/2022\/apr\/15\/ditch-the-tardis-five-ways-russell-t-davies-could-revive-doctor-who","apiUrl":"https:\/\/content.guardianapis.com\/tv-and-radio\/2022\/apr\/15\/ditch-the-tardis-five-ways-russell-t-davies-could-revive-doctor-who","isHosted":false,"pillarId":"pillar\/arts","pillarName":"Arts"},{"id":"science\/2022\/mar\/23\/mystery-owner-of-stan-the-t-rex-finally-revealed-following-318m-auction","type":"article","sectionId":"science","sectionName":"Science","webPublicationDate":"2022-03-23T19:27:18Z","webTitle":"Mystery owner of Stan the T rex finally revealed following $31.8m auction","webUrl":"https:\/\/www.theguardian.com\/science\/2022\/mar\/23\/mystery-owner-of-stan-the-t-rex-finally-revealed-following-318m-auction","apiUrl":"https:\/\/content.guardianapis.com\/science\/2022\/mar\/23\/mystery-owner-of-stan-the-t-rex-finally-revealed-following-318m-auction","isHosted":false,"pillarId":"pillar\/news","pillarName":"News"},{"id":"society\/2022\/feb\/02\/first-patients-pioneering-car-t-cell-therapy-cured-of-cancer","type":"article","sectionId":"society","sectionName":"Society","webPublicationDate":"2022-02-02T16:00:27Z","webTitle":"First patients of pioneering CAR T-cell therapy \u2018cured of cancer\u2019","webUrl":"https:\/\/www.theguardian.com\/society\/2022\/feb\/02\/first-patients-pioneering-car-t-cell-therapy-cured-of-cancer","apiUrl":"https:\/\/content.guardianapis.com\/society\/2022\/feb\/02\/first-patients-pioneering-car-t-cell-therapy-cured-of-cancer","isHosted":false,"pillarId":"pillar\/news","pillarName":"News"},{"id":"music\/2022\/mar\/22\/pusha-t-mcdonalds-diss-track-arbys","type":"article","sectionId":"music","sectionName":"Music","webPublicationDate":"2022-03-22T18:14:13Z","webTitle":" Pusha T releases McDonald\u2019s diss track over alleged failure to pay for jingle ","webUrl":"https:\/\/www.theguardian.com\/music\/2022\/mar\/22\/pusha-t-mcdonalds-diss-track-arbys","apiUrl":"https:\/\/content.guardianapis.com\/music\/2022\/mar\/22\/pusha-t-mcdonalds-diss-track-arbys","isHosted":false,"pillarId":"pillar\/arts","pillarName":"Arts"},{"id":"media\/2022\/feb\/14\/its-a-sin-creator-russell-t-davies-named-most-influential-in-television","type":"article","sectionId":"media","sectionName":"Media","webPublicationDate":"2022-02-14T00:01:02Z","webTitle":"It\u2019s a Sin creator Russell T Davies named most influential in television","webUrl":"https:\/\/www.theguardian.com\/media\/2022\/feb\/14\/its-a-sin-creator-russell-t-davies-named-most-influential-in-television","apiUrl":"https:\/\/content.guardianapis.com\/media\/2022\/feb\/14\/its-a-sin-creator-russell-t-davies-named-most-influential-in-television","isHosted":false,"pillarId":"pillar\/news","pillarName":"News"},{"id":"culture\/2022\/may\/14\/down-the-rabbit-hole-essex-serpent-de-niro-taylor-swift","type":"article","sectionId":"culture","sectionName":"Culture","webPublicationDate":"2022-05-14T12:00:01Z","webTitle":"What links The Essex Serpent to a brave De Niro impression and a Taylor Swift T-shirt? ","webUrl":"https:\/\/www.theguardian.com\/culture\/2022\/may\/14\/down-the-rabbit-hole-essex-serpent-de-niro-taylor-swift","apiUrl":"https:\/\/content.guardianapis.com\/culture\/2022\/may\/14\/down-the-rabbit-hole-essex-serpent-de-niro-taylor-swift","isHosted":false,"pillarId":"pillar\/arts","pillarName":"Arts"},{"id":"sport\/2022\/jan\/25\/australian-open-reverses-it-ban-on-where-is-peng-shuai-t-shirts","type":"article","sectionId":"sport","sectionName":"Sport","webPublicationDate":"2022-01-25T02:43:20Z","webTitle":"Australian Open reverses its ban on \u2018Where is Peng Shuai?\u2019 T-shirts ","webUrl":"https:\/\/www.theguardian.com\/sport\/2022\/jan\/25\/australian-open-reverses-it-ban-on-where-is-peng-shuai-t-shirts","apiUrl":"https:\/\/content.guardianapis.com\/sport\/2022\/jan\/25\/australian-open-reverses-it-ban-on-where-is-peng-shuai-t-shirts","isHosted":false,"pillarId":"pillar\/sport","pillarName":"Sport"}]}}