{"response":{"status":"ok","userTier":"developer","total":14345,"startIndex":1,"pageSize":10,"currentPage":1,"pages":1435,"orderBy":"relevance","results":[{"id":"books\/2022\/apr\/03\/an-autobiography-by-angela-y-davis-abolition-feminism-now-by-angela-y-davis-gina-dent-erica-r-meiners-beth-e-richie-review","type":"article","sectionId":"books","sectionName":"Books","webPublicationDate":"2022-04-03T12:00:19Z","webTitle":"An Autobiography by Angela Y Davis; Abolition. Feminism. Now. by Angela Y Davis, Gina Dent, Erica R Meiners, Beth E Richie \u2013 review","webUrl":"https:\/\/www.theguardian.com\/books\/2022\/apr\/03\/an-autobiography-by-angela-y-davis-abolition-feminism-now-by-angela-y-davis-gina-dent-erica-r-meiners-beth-e-richie-review","apiUrl":"https:\/\/content.guardianapis.com\/books\/2022\/apr\/03\/an-autobiography-by-angela-y-davis-abolition-feminism-now-by-angela-y-davis-gina-dent-erica-r-meiners-beth-e-richie-review","isHosted":false,"pillarId":"pillar\/arts","pillarName":"Arts"},{"id":"music\/2022\/may\/01\/toro-y-moi-mahal-review-gently-seductive-but-frustratingly-half-baked","type":"article","sectionId":"music","sectionName":"Music","webPublicationDate":"2022-05-01T14:00:26Z","webTitle":"Toro y Moi: Mahal review \u2013 gently seductive but frustratingly half-baked","webUrl":"https:\/\/www.theguardian.com\/music\/2022\/may\/01\/toro-y-moi-mahal-review-gently-seductive-but-frustratingly-half-baked","apiUrl":"https:\/\/content.guardianapis.com\/music\/2022\/may\/01\/toro-y-moi-mahal-review-gently-seductive-but-frustratingly-half-baked","isHosted":false,"pillarId":"pillar\/arts","pillarName":"Arts"},{"id":"world\/2022\/feb\/14\/spain-far-right-vox-party-demand-place-castilla-y-leon-government-peoples-party-snap-election-backfires","type":"article","sectionId":"world","sectionName":"World news","webPublicationDate":"2022-02-14T14:16:36Z","webTitle":"Spain\u2019s far-right Vox party demands place in Castilla y Le\u00f3n government","webUrl":"https:\/\/www.theguardian.com\/world\/2022\/feb\/14\/spain-far-right-vox-party-demand-place-castilla-y-leon-government-peoples-party-snap-election-backfires","apiUrl":"https:\/\/content.guardianapis.com\/world\/2022\/feb\/14\/spain-far-right-vox-party-demand-place-castilla-y-leon-government-peoples-party-snap-election-backfires","isHosted":false,"pillarId":"pillar\/news","pillarName":"News"},{"id":"tv-and-radio\/2021\/sep\/22\/y-the-last-man-review-a-stale-male-manbaby-mess","type":"article","sectionId":"tv-and-radio","sectionName":"Television & radio","webPublicationDate":"2021-09-22T12:48:20Z","webTitle":"Y: The Last Man review \u2013 a stale, male manbaby mess","webUrl":"https:\/\/www.theguardian.com\/tv-and-radio\/2021\/sep\/22\/y-the-last-man-review-a-stale-male-manbaby-mess","apiUrl":"https:\/\/content.guardianapis.com\/tv-and-radio\/2021\/sep\/22\/y-the-last-man-review-a-stale-male-manbaby-mess","isHosted":false,"pillarId":"pillar\/arts","pillarName":"Arts"},{"id":"commentisfree\/2022\/feb\/14\/jewish-spurs-fan-y-word-chants-tottenham-hotspur","type":"article","sectionId":"commentisfree","sectionName":"Opinion","webPublicationDate":"2022-02-14T10:00:14Z","webTitle":"As a Jewish Spurs fan, I saw Y-word chants as a form of solidarity. But they have to go | Mark Solomons","webUrl":"https:\/\/www.theguardian.com\/commentisfree\/2022\/feb\/14\/jewish-spurs-fan-y-word-chants-tottenham-hotspur","apiUrl":"https:\/\/content.guardianapis.com\/commentisfree\/2022\/feb\/14\/jewish-spurs-fan-y-word-chants-tottenham-hotspur","isHosted":false,"pillarId":"pillar\/opinion","pillarName":"Opinion"},{"id":"world\/2022\/mar\/10\/spain-far-right-vox-regional-government-castilla-y-leon-peoples-party-deal","type":"article","sectionId":"world","sectionName":"World news","webPublicationDate":"2022-03-10T16:46:30Z","webTitle":"Spain\u2019s far-right Vox breaks through into regional government","webUrl":"https:\/\/www.theguardian.com\/world\/2022\/mar\/10\/spain-far-right-vox-regional-government-castilla-y-leon-peoples-party-deal","apiUrl":"https:\/\/content.guardianapis.com\/world\/2022\/mar\/10\/spain-far-right-vox-regional-government-castilla-y-leon-peoples-party-deal","isHosted":false,"pillarId":"pillar\/news","pillarName":"News"},{"id":"tv-and-radio\/2021\/sep\/18\/y-the-last-man-a-playful-comic-book-caper-in-which-every-man-is-dead","type":"article","sectionId":"tv-and-radio","sectionName":"Television & radio","webPublicationDate":"2021-09-18T10:00:04Z","webTitle":"Y: The Last Man: a playful comic book caper in which every man is dead","webUrl":"https:\/\/www.theguardian.com\/tv-and-radio\/2021\/sep\/18\/y-the-last-man-a-playful-comic-book-caper-in-which-every-man-is-dead","apiUrl":"https:\/\/content.guardianapis.com\/tv-and-radio\/2021\/sep\/18\/y-the-last-man-a-playful-comic-book-caper-in-which-every-man-is-dead","isHosted":false,"pillarId":"pillar\/arts","pillarName":"Arts"},{"id":"tv-and-radio\/2021\/jul\/12\/take-our-devilishly-difficult-only-connect-quiz","type":"article","sectionId":"tv-and-radio","sectionName":"Television & radio","webPublicationDate":"2021-07-12T11:16:30Z","webTitle":"Cn y hn dl t? Take our devilishly difficult Only Connect quiz","webUrl":"https:\/\/www.theguardian.com\/tv-and-radio\/2021\/jul\/12\/take-our-devilishly-difficult-only-connect-quiz","apiUrl":"https:\/\/content.guardianapis.com\/tv-and-radio\/2021\/jul\/12\/take-our-devilishly-difficult-only-connect-quiz","isHosted":false,"pillarId":"pillar\/arts","pillarName":"Arts"},{"id":"technology\/2022\/apr\/20\/tesla-first-quarter-revenues-elon-musk","type":"article","sectionId":"technology","sectionName":"Technology","webPublicationDate":"2022-04-21T00:50:56Z","webTitle":"Tesla has another record quarter in tumultuous period for Elon Musk","webUrl":"https:\/\/www.theguardian.com\/technology\/2022\/apr\/20\/tesla-first-quarter-revenues-elon-musk","apiUrl":"https:\/\/content.guardianapis.com\/technology\/2022\/apr\/20\/tesla-first-quarter-revenues-elon-musk","isHosted":false,"pillarId":"pillar\/news","pillarName":"News"},{"id":"fashion\/2022\/feb\/18\/rocky-shorts-and-madonna-bra-show-madrid-gaultier-cine-y-moda","type":"article","sectionId":"fashion","sectionName":"Fashion","webPublicationDate":"2022-02-18T11:24:02Z","webTitle":"Rocky\u2019s shorts and Madonna\u2019s bra on display in Madrid at Gaultier show","webUrl":"https:\/\/www.theguardian.com\/fashion\/2022\/feb\/18\/rocky-shorts-and-madonna-bra-show-madrid-gaultier-cine-y-moda","apiUrl":"https:\/\/content.guardianapis.com\/fashion\/2022\/feb\/18\/rocky-shorts-and-madonna-bra-show-madrid-gaultier-cine-y-moda","isHosted":false,"pillarId":"pillar\/lifestyle","pillarName":"Lifestyle"}]}}